F86 Grundpraktikum Optik/45.csv

Model,MDO3024
Firmware Version,1.26

Waveform Type,ANALOG,
Point Format,Y,
Horizontal Units,s,
Horizontal Scale,0.4,
Horizontal Delay,0,
Sample Interval,0.004,
Record Length,1000,
Gating,0.1% to 100.0%,
Probe Attenuation,1,1
Vertical Units,V,V
Vertical Offset,0,0
Vertical Scale,2,2
Vertical Position,0,-1.98
,,
,,
,,
Label,,
TIME,CH1,CH2
-2.000e+00,2.16,3.4
-1.996e+00,2.16,3.24
-1.992e+00,2.16,2.92
-1.988e+00,2.16,2.84
-1.984e+00,2.16,2.76
-1.980e+00,2.08,2.68
-1.976e+00,2.08,2.68
-1.972e+00,2,2.6
-1.968e+00,2,2.52
-1.964e+00,2,2.52
-1.960e+00,2,2.92
-1.956e+00,2,3
-1.952e+00,2,3.08
-1.948e+00,1.84,2.84
-1.944e+00,1.84,2.92
-1.940e+00,2,2.84
-1.936e+00,1.92,2.76
-1.932e+00,1.84,2.84
-1.928e+00,1.92,2.76
-1.924e+00,1.84,2.68
-1.920e+00,1.76,2.68
-1.916e+00,1.76,2.76
-1.912e+00,1.84,1.64
-1.908e+00,1.68,1.56
-1.904e+00,1.76,1.56
-1.900e+00,1.76,1.64
-1.896e+00,1.68,2.36
-1.892e+00,1.68,2.12
-1.888e+00,1.6,2.04
-1.884e+00,1.6,1.88
-1.880e+00,1.6,1.72
-1.876e+00,1.6,1.56
-1.872e+00,1.6,1.4
-1.868e+00,1.6,1.48
-1.864e+00,1.52,1.56
-1.860e+00,1.52,1.56
-1.856e+00,1.52,1.48
-1.852e+00,1.44,1.32
-1.848e+00,1.52,1.24
-1.844e+00,1.36,1.16
-1.840e+00,1.44,1
-1.836e+00,1.44,0.84
-1.832e+00,1.28,0.92
-1.828e+00,1.36,1
-1.824e+00,1.44,1
-1.820e+00,1.28,0.92
-1.816e+00,1.28,1.08
-1.812e+00,1.28,1.16
-1.808e+00,1.2,1.16
-1.804e+00,1.28,1.32
-1.800e+00,1.28,1.4
-1.796e+00,1.2,1.32
-1.792e+00,1.2,1.4
-1.788e+00,1.2,1.64
-1.784e+00,1.2,1.48
-1.780e+00,1.2,1.4
-1.776e+00,1.12,1.48
-1.772e+00,1.2,1.4
-1.768e+00,1.12,1.48
-1.764e+00,1.12,1.48
-1.760e+00,1.12,1.56
-1.756e+00,1.04,1.64
-1.752e+00,0.96,1.56
-1.748e+00,1.04,1.64
-1.744e+00,0.96,1.56
-1.740e+00,0.96,1.48
-1.736e+00,1.04,1.56
-1.732e+00,0.96,1.4
-1.728e+00,0.88,1.48
-1.724e+00,0.96,1.56
-1.720e+00,0.96,1.56
-1.716e+00,0.96,1.64
-1.712e+00,0.88,1.64
-1.708e+00,0.8,1.56
-1.704e+00,0.88,1.64
-1.700e+00,0.8,1.56
-1.696e+00,0.8,1.56
-1.692e+00,0.8,1.56
-1.688e+00,0.72,1.56
-1.684e+00,0.72,1.64
-1.680e+00,0.64,1.88
-1.676e+00,0.72,2.6
-1.672e+00,0.72,2.12
-1.668e+00,0.56,1.8
-1.664e+00,0.64,1.88
-1.660e+00,0.64,2.12
-1.656e+00,0.56,2.28
-1.652e+00,0.64,2.52
-1.648e+00,0.56,2.84
-1.644e+00,0.64,2.92
-1.640e+00,0.56,2.84
-1.636e+00,0.56,3
-1.632e+00,0.48,3
-1.628e+00,0.48,3.24
-1.624e+00,0.48,3.48
-1.620e+00,0.48,3.64
-1.616e+00,0.4,3.8
-1.612e+00,0.4,3.8
-1.608e+00,0.4,3.8
-1.604e+00,0.4,3.96
-1.600e+00,0.4,4.12
-1.596e+00,0.4,4.2
-1.592e+00,0.24,4.12
-1.588e+00,0.24,3.96
-1.584e+00,0.24,4.04
-1.580e+00,0.24,4.12
-1.576e+00,0.16,4.12
-1.572e+00,0.24,3.96
-1.568e+00,0.24,4.04
-1.564e+00,0.16,4.04
-1.560e+00,0.16,4.12
-1.556e+00,0.16,4.2
-1.552e+00,0.24,4.44
-1.548e+00,0.16,4.2
-1.544e+00,0.16,3.88
-1.540e+00,0,3.96
-1.536e+00,0.08,3.96
-1.532e+00,0.08,3.96
-1.528e+00,0,4.12
-1.524e+00,0,4.36
-1.520e+00,0,4.68
-1.516e+00,0,4.6
-1.512e+00,0,4.36
-1.508e+00,0.08,3.96
-1.504e+00,0,3.88
-1.500e+00,0,3.8
-1.496e+00,0,3.72
-1.492e+00,0,4.04
-1.488e+00,0,4.68
-1.484e+00,0.08,4.44
-1.480e+00,0,4.04
-1.476e+00,0.16,4.44
-1.472e+00,0.08,4.52
-1.468e+00,0.08,3.72
-1.464e+00,0.24,3.8
-1.460e+00,0.16,3.96
-1.456e+00,0.08,4.04
-1.452e+00,0.16,4.12
-1.448e+00,0.24,4.36
-1.444e+00,0.16,4.52
-1.440e+00,0.24,4.28
-1.436e+00,0.32,4.12
-1.432e+00,0.24,4.04
-1.428e+00,0.32,4.2
-1.424e+00,0.4,4.2
-1.420e+00,0.32,4.12
-1.416e+00,0.4,4.2
-1.412e+00,0.32,4.44
-1.408e+00,0.32,4.36
-1.404e+00,0.32,3.96
-1.400e+00,0.4,3.96
-1.396e+00,0.4,3.96
-1.392e+00,0.48,3.96
-1.388e+00,0.4,3.96
-1.384e+00,0.48,3.96
-1.380e+00,0.48,4.12
-1.376e+00,0.48,3.96
-1.372e+00,0.56,3.96
-1.368e+00,0.56,3.96
-1.364e+00,0.64,3.88
-1.360e+00,0.56,3.56
-1.356e+00,0.64,3.4
-1.352e+00,0.64,3.32
-1.348e+00,0.56,2.92
-1.344e+00,0.56,2.92
-1.340e+00,0.64,3.16
-1.336e+00,0.72,3.32
-1.332e+00,0.72,3.32
-1.328e+00,0.8,3.08
-1.324e+00,0.72,2.68
-1.320e+00,0.8,2.36
-1.316e+00,0.8,2.04
-1.312e+00,0.72,1.88
-1.308e+00,0.88,1.8
-1.304e+00,0.88,3.16
-1.300e+00,0.96,3
-1.296e+00,0.96,2.84
-1.292e+00,1.04,2.76
-1.288e+00,0.88,2.76
-1.284e+00,0.96,1.72
-1.280e+00,0.88,1.56
-1.276e+00,0.96,1.64
-1.272e+00,0.88,1.64
-1.268e+00,0.96,1.64
-1.264e+00,0.96,2.04
-1.260e+00,1.04,2.12
-1.256e+00,1.04,2.12
-1.252e+00,1.12,2.04
-1.248e+00,1.04,1.96
-1.244e+00,1.12,1.8
-1.240e+00,1.12,1.56
-1.236e+00,1.12,1.56
-1.232e+00,1.2,1.56
-1.228e+00,1.2,1.48
-1.224e+00,1.2,1.48
-1.220e+00,1.2,1.48
-1.216e+00,1.2,1.48
-1.212e+00,1.28,1.4
-1.208e+00,1.28,1.4
-1.204e+00,1.28,1.4
-1.200e+00,1.28,1.32
-1.196e+00,1.36,1.4
-1.192e+00,1.44,1.4
-1.188e+00,1.28,1.4
-1.184e+00,1.36,1.4
-1.180e+00,1.44,1.48
-1.176e+00,1.52,1.56
-1.172e+00,1.44,1.4
-1.168e+00,1.44,1.32
-1.164e+00,1.52,1.16
-1.160e+00,1.44,1.24
-1.156e+00,1.6,1.16
-1.152e+00,1.6,1
-1.148e+00,1.52,0.84
-1.144e+00,1.52,0.92
-1.140e+00,1.6,0.92
-1.136e+00,1.6,1.16
-1.132e+00,1.6,1.32
-1.128e+00,1.68,1.4
-1.124e+00,1.68,1.4
-1.120e+00,1.68,1.64
-1.116e+00,1.76,1.56
-1.112e+00,1.68,1.56
-1.108e+00,1.68,1.56
-1.104e+00,1.84,1.64
-1.100e+00,1.84,1.56
-1.096e+00,1.84,1.8
-1.092e+00,1.84,2.04
-1.088e+00,1.84,2.12
-1.084e+00,1.84,2.36
-1.080e+00,1.92,2.44
-1.076e+00,2,2.68
-1.072e+00,1.92,1.64
-1.068e+00,1.92,1.64
-1.064e+00,2,1.88
-1.060e+00,2,2.76
-1.056e+00,1.92,2.76
-1.052e+00,2,2.76
-1.048e+00,2,2.76
-1.044e+00,2,2.76
-1.040e+00,2,2.68
-1.036e+00,2,2.68
-1.032e+00,2.08,2.84
-1.028e+00,2.16,2.84
-1.024e+00,2.16,3
-1.020e+00,2.24,3.24
-1.016e+00,2.16,3.24
-1.012e+00,2.16,3.16
-1.008e+00,2.24,3.08
-1.004e+00,2.24,3
-1.000e+00,2.24,2.84
-9.960e-01,2.24,2.84
-9.920e-01,2.32,2.84
-9.880e-01,2.32,3.08
-9.840e-01,2.32,3.24
-9.800e-01,2.32,3.4
-9.760e-01,2.4,3.56
-9.720e-01,2.32,3.56
-9.680e-01,2.32,3.8
-9.640e-01,2.4,3.72
-9.600e-01,2.4,3.64
-9.560e-01,2.4,3.48
-9.520e-01,2.4,3.64
-9.480e-01,2.4,3.64
-9.440e-01,2.48,3.64
-9.400e-01,2.48,3.8
-9.360e-01,2.56,3.72
-9.320e-01,2.56,3.8
-9.280e-01,2.56,3.88
-9.240e-01,2.56,3.88
-9.200e-01,2.56,3.88
-9.160e-01,2.56,3.96
-9.120e-01,2.64,3.96
-9.080e-01,2.56,3.96
-9.040e-01,2.64,4.04
-9.000e-01,2.64,4.04
-8.960e-01,2.72,4.12
-8.920e-01,2.64,4.2
-8.880e-01,2.72,4.36
-8.840e-01,2.72,4.44
-8.800e-01,2.72,4.44
-8.760e-01,2.8,4.44
-8.720e-01,2.8,4.44
-8.680e-01,2.8,4.36
-8.640e-01,2.8,4.28
-8.600e-01,2.8,4.12
-8.560e-01,2.8,4.04
-8.520e-01,2.96,4.04
-8.480e-01,2.96,3.88
-8.440e-01,2.96,3.8
-8.400e-01,2.96,3.8
-8.360e-01,2.88,3.72
-8.320e-01,2.96,3.72
-8.280e-01,3.04,3.8
-8.240e-01,2.88,3.96
-8.200e-01,2.96,4.28
-8.160e-01,3.04,4.28
-8.120e-01,2.96,4.44
-8.080e-01,3.12,4.68
-8.040e-01,3.04,4.76
-8.000e-01,3.12,4.68
-7.960e-01,3.2,4.12
-7.920e-01,3.12,3.96
-7.880e-01,3.12,3.96
-7.840e-01,3.28,3.96
-7.800e-01,3.2,4.12
-7.760e-01,3.28,4.2
-7.720e-01,3.28,4.2
-7.680e-01,3.28,4.2
-7.640e-01,3.36,4.2
-7.600e-01,3.28,4.2
-7.560e-01,3.28,4.2
-7.520e-01,3.36,4.28
-7.480e-01,3.36,4.12
-7.440e-01,3.36,4.12
-7.400e-01,3.36,4.12
-7.360e-01,3.36,4.04
-7.320e-01,3.52,4.04
-7.280e-01,3.44,3.96
-7.240e-01,3.44,4.04
-7.200e-01,3.44,3.96
-7.160e-01,3.52,3.88
-7.120e-01,3.52,3.88
-7.080e-01,3.52,3.88
-7.040e-01,3.6,3.72
-7.000e-01,3.6,3.64
-6.960e-01,3.6,3.56
-6.920e-01,3.6,3.4
-6.880e-01,3.6,3.32
-6.840e-01,3.6,3.16
-6.800e-01,3.6,3
-6.760e-01,3.68,2.76
-6.720e-01,3.68,2.52
-6.680e-01,3.76,2.28
-6.640e-01,3.6,2.2
-6.600e-01,3.68,2.2
-6.560e-01,3.76,2.12
-6.520e-01,3.76,2.12
-6.480e-01,3.76,2.04
-6.440e-01,3.84,1.96
-6.400e-01,3.76,1.96
-6.360e-01,3.84,1.8
-6.320e-01,3.92,1.8
-6.280e-01,3.92,1.72
-6.240e-01,3.84,1.72
-6.200e-01,3.92,1.48
-6.160e-01,4,1.48
-6.120e-01,3.92,1.48
-6.080e-01,3.92,1.4
-6.040e-01,3.92,1.4
-6.000e-01,4,1.4
-5.960e-01,4,1.48
-5.920e-01,4.08,1.56
-5.880e-01,4.08,1.48
-5.840e-01,4.08,1.48
-5.800e-01,4.16,1.48
-5.760e-01,4.08,1.56
-5.720e-01,4.16,1.56
-5.680e-01,4.16,1.48
-5.640e-01,4.16,1.48
-5.600e-01,4.16,1.48
-5.560e-01,4.16,1.4
-5.520e-01,4.24,1.48
-5.480e-01,4.24,1.48
-5.440e-01,4.24,1.32
-5.400e-01,4.32,1.4
-5.360e-01,4.32,1.48
-5.320e-01,4.4,1.24
-5.280e-01,4.48,1.32
-5.240e-01,4.4,1.32
-5.200e-01,4.4,1.24
-5.160e-01,4.4,1.32
-5.120e-01,4.48,1.32
-5.080e-01,4.4,1.4
-5.040e-01,4.4,1.48
-5.000e-01,4.56,1.64
-4.960e-01,4.48,1.56
-4.920e-01,4.56,1.48
-4.880e-01,4.4,1.56
-4.840e-01,4.48,1.4
-4.800e-01,4.48,1.4
-4.760e-01,4.4,1.4
-4.720e-01,4.4,1.32
-4.680e-01,4.4,1.24
-4.640e-01,4.4,1.24
-4.600e-01,4.32,1.24
-4.560e-01,4.32,1.24
-4.520e-01,4.4,1.16
-4.480e-01,4.32,1.16
-4.440e-01,4.32,1.32
-4.400e-01,4.32,1.4
-4.360e-01,4.24,1.4
-4.320e-01,4.32,1.48
-4.280e-01,4.24,1.48
-4.240e-01,4.24,1.48
-4.200e-01,4.24,1.56
-4.160e-01,4.16,1.48
-4.120e-01,4.08,1.48
-4.080e-01,4.16,1.48
-4.040e-01,4.08,1.48
-4.000e-01,4.08,1.56
-3.960e-01,4,1.56
-3.920e-01,4.08,1.56
-3.880e-01,4.08,1.64
-3.840e-01,4,1.48
-3.800e-01,4.08,1.56
-3.760e-01,4,1.56
-3.720e-01,4,1.56
-3.680e-01,3.92,1.48
-3.640e-01,3.84,1.56
-3.600e-01,4,1.64
-3.560e-01,3.84,1.88
-3.520e-01,3.84,1.88
-3.480e-01,3.84,2.12
-3.440e-01,3.84,2.2
-3.400e-01,3.84,2.28
-3.360e-01,3.76,2.04
-3.320e-01,3.76,1.88
-3.280e-01,3.76,1.8
-3.240e-01,3.76,1.72
-3.200e-01,3.76,1.64
-3.160e-01,3.68,1.72
-3.120e-01,3.68,1.72
-3.080e-01,3.68,1.8
-3.040e-01,3.68,1.88
-3.000e-01,3.68,1.88
-2.960e-01,3.52,2.04
-2.920e-01,3.6,2.28
-2.880e-01,3.52,2.44
-2.840e-01,3.52,2.6
-2.800e-01,3.52,2.76
-2.760e-01,3.6,2.92
-2.720e-01,3.44,3
-2.680e-01,3.44,3.16
-2.640e-01,3.52,3.24
-2.600e-01,3.44,3.4
-2.560e-01,3.36,3.64
-2.520e-01,3.44,3.72
-2.480e-01,3.52,3.88
-2.440e-01,3.36,3.96
-2.400e-01,3.36,3.88
-2.360e-01,3.44,3.96
-2.320e-01,3.28,4.12
-2.280e-01,3.36,4.04
-2.240e-01,3.28,4.12
-2.200e-01,3.2,4.12
-2.160e-01,3.2,4.12
-2.120e-01,3.36,4.2
-2.080e-01,3.28,4.12
-2.040e-01,3.12,4.12
-2.000e-01,3.2,4.2
-1.960e-01,3.2,4.12
-1.920e-01,3.12,4.12
-1.880e-01,3.04,4.12
-1.840e-01,3.2,3.96
-1.800e-01,3.2,4.2
-1.760e-01,3.04,3.96
-1.720e-01,3.12,3.96
-1.680e-01,2.88,3.96
-1.640e-01,2.96,3.96
-1.600e-01,2.96,3.88
-1.560e-01,2.96,3.88
-1.520e-01,2.88,3.88
-1.480e-01,2.96,3.72
-1.440e-01,2.96,3.8
-1.400e-01,2.8,4.12
-1.360e-01,2.88,4.6
-1.320e-01,2.8,4.84
-1.280e-01,2.8,5.16
-1.240e-01,2.8,5.24
-1.200e-01,2.8,5.24
-1.160e-01,2.72,5.16
-1.120e-01,2.8,5.08
-1.080e-01,2.8,4.76
-1.040e-01,2.8,4.52
-1.000e-01,2.8,4.28
-9.600e-02,2.72,4.36
-9.200e-02,2.72,4.12
-8.800e-02,2.56,4.12
-8.400e-02,2.56,4.12
-8.000e-02,2.64,4.12
-7.600e-02,2.64,4.12
-7.200e-02,2.56,4.04
-6.800e-02,2.56,4.12
-6.400e-02,2.64,4.12
-6.000e-02,2.64,4.12
-5.600e-02,2.48,4.2
-5.200e-02,2.48,4.12
-4.800e-02,2.48,4.04
-4.400e-02,2.48,3.88
-4.000e-02,2.48,3.88
-3.600e-02,2.56,3.88
-3.200e-02,2.32,3.8
-2.800e-02,2.4,3.72
-2.400e-02,2.32,3.72
-2.000e-02,2.4,3.72
-1.600e-02,2.32,3.64
-1.200e-02,2.32,3.64
-8.000e-03,2.32,3.64
-4.000e-03,2.24,3.64
2.000e-15,2.24,3.64
4.000e-03,2.32,3.56
8.000e-03,2.24,3.56
1.200e-02,2.24,3.72
1.600e-02,2.16,3.8
2.000e-02,2.24,3.8
2.400e-02,2.16,3.8
2.800e-02,2.24,3.72
3.200e-02,2.16,3.72
3.600e-02,2.24,3.8
4.000e-02,2.16,3.64
4.400e-02,2,3.4
4.800e-02,2.08,3.4
5.200e-02,2,3.32
5.600e-02,2,3.24
6.000e-02,2,3.16
6.400e-02,2,3.08
6.800e-02,1.92,3.08
7.200e-02,1.92,3
7.600e-02,1.92,2.92
8.000e-02,1.92,2.84
8.400e-02,1.84,2.84
8.800e-02,1.84,2.76
9.200e-02,1.84,2.6
9.600e-02,1.92,2.44
1.000e-01,1.76,2.44
1.040e-01,1.84,2.28
1.080e-01,1.76,2.2
1.120e-01,1.84,2.2
1.160e-01,1.76,2.2
1.200e-01,1.76,2.28
1.240e-01,1.68,2.12
1.280e-01,1.68,2.04
1.320e-01,1.68,2.04
1.360e-01,1.68,1.88
1.400e-01,1.6,1.72
1.440e-01,1.6,1.56
1.480e-01,1.6,1.56
1.520e-01,1.68,1.48
1.560e-01,1.6,1.56
1.600e-01,1.52,1.56
1.640e-01,1.52,1.48
1.680e-01,1.44,1.64
1.720e-01,1.52,1.64
1.760e-01,1.52,1.64
1.800e-01,1.44,1.56
1.840e-01,1.44,1.48
1.880e-01,1.36,1.48
1.920e-01,1.44,1.64
1.960e-01,1.44,1.48
2.000e-01,1.36,1.32
2.040e-01,1.28,1.24
2.080e-01,1.36,1.24
2.120e-01,1.28,1.24
2.160e-01,1.28,1.32
2.200e-01,1.28,1.24
2.240e-01,1.2,1.24
2.280e-01,1.28,1.24
2.320e-01,1.36,1.32
2.360e-01,1.12,1.32
2.400e-01,1.28,1.4
2.440e-01,1.2,1.48
2.480e-01,1.12,1.48
2.520e-01,1.12,1.48
2.560e-01,1.2,1.48
2.600e-01,1.2,1.48
2.640e-01,1.12,1.56
2.680e-01,1.04,1.56
2.720e-01,1.04,1.56
2.760e-01,1.12,1.56
2.800e-01,1.04,1.64
2.840e-01,1.04,1.64
2.880e-01,0.96,1.72
2.920e-01,0.96,1.64
2.960e-01,1.04,1.56
3.000e-01,0.8,1.56
3.040e-01,0.96,1.64
3.080e-01,0.96,1.64
3.120e-01,0.88,1.56
3.160e-01,0.8,1.72
3.200e-01,0.88,1.64
3.240e-01,0.72,1.8
3.280e-01,0.72,1.88
3.320e-01,0.72,1.88
3.360e-01,0.8,1.88
3.400e-01,0.64,1.96
3.440e-01,0.72,2.28
3.480e-01,0.72,2.36
3.520e-01,0.72,2.2
3.560e-01,0.72,2.12
3.600e-01,0.56,2.28
3.640e-01,0.64,2.52
3.680e-01,0.64,2.52
3.720e-01,0.56,2.52
3.760e-01,0.64,2.68
3.800e-01,0.64,2.68
3.840e-01,0.56,3
3.880e-01,0.48,3
3.920e-01,0.4,3.24
3.960e-01,0.56,3.4
4.000e-01,0.4,3.48
4.040e-01,0.4,3.48
4.080e-01,0.4,3.64
4.120e-01,0.4,3.8
4.160e-01,0.4,3.8
4.200e-01,0.48,3.88
4.240e-01,0.48,3.88
4.280e-01,0.32,3.96
4.320e-01,0.24,4.04
4.360e-01,0.24,4.04
4.400e-01,0.24,3.96
4.440e-01,0.24,3.96
4.480e-01,0.32,4.04
4.520e-01,0.24,4.12
4.560e-01,0.24,4.04
4.600e-01,0.24,4.04
4.640e-01,0.16,3.96
4.680e-01,0.16,3.88
4.720e-01,0.16,3.88
4.760e-01,0.16,3.96
4.800e-01,0.08,4.68
4.840e-01,0,4.84
4.880e-01,0.08,4.68
4.920e-01,0.08,4.28
4.960e-01,0,4.84
5.000e-01,0.08,5
5.040e-01,0,4.92
5.080e-01,0,3.96
5.120e-01,0,3.72
5.160e-01,-0.08,3.72
5.200e-01,0,3.88
5.240e-01,0.08,3.64
5.280e-01,0,3.72
5.320e-01,0.08,3.72
5.360e-01,0,3.8
5.400e-01,0,4.12
5.440e-01,0,3.96
5.480e-01,0.08,3.88
5.520e-01,0.08,4.44
5.560e-01,0.16,5.24
5.600e-01,0.16,5.24
5.640e-01,0.16,5.16
5.680e-01,0.24,5.16
5.720e-01,0.16,5.16
5.760e-01,0.16,5.16
5.800e-01,0.16,5
5.840e-01,0.24,4.76
5.880e-01,0.24,3.8
5.920e-01,0.32,3.88
5.960e-01,0.24,3.88
6.000e-01,0.32,3.96
6.040e-01,0.32,4.12
6.080e-01,0.32,4.12
6.120e-01,0.32,4.04
6.160e-01,0.4,3.96
6.200e-01,0.32,4.04
6.240e-01,0.4,4.04
6.280e-01,0.48,3.96
6.320e-01,0.48,3.88
6.360e-01,0.4,3.88
6.400e-01,0.48,3.8
6.440e-01,0.48,3.72
6.480e-01,0.48,3.8
6.520e-01,0.56,3.64
6.560e-01,0.56,3.64
6.600e-01,0.56,3.64
6.640e-01,0.56,3.48
6.680e-01,0.56,3.48
6.720e-01,0.64,3.24
6.760e-01,0.72,3.08
6.800e-01,0.64,2.84
6.840e-01,0.64,2.76
6.880e-01,0.72,2.52
6.920e-01,0.64,2.52
6.960e-01,0.72,2.44
7.000e-01,0.72,2.44
7.040e-01,0.8,2.36
7.080e-01,0.8,2.52
7.120e-01,0.8,2.52
7.160e-01,0.8,2.36
7.200e-01,0.8,2.2
7.240e-01,0.88,2.2
7.280e-01,0.8,2.04
7.320e-01,0.88,1.96
7.360e-01,0.88,1.88
7.400e-01,0.96,1.8
7.440e-01,0.96,1.72
7.480e-01,0.96,1.64
7.520e-01,1.04,1.56
7.560e-01,1.04,1.64
7.600e-01,1.04,1.56
7.640e-01,1.12,1.56
7.680e-01,1.04,1.56
7.720e-01,1.12,1.56
7.760e-01,1.12,1.56
7.800e-01,1.04,1.64
7.840e-01,1.12,1.64
7.880e-01,1.12,1.72
7.920e-01,1.2,1.64
7.960e-01,1.2,1.56
8.000e-01,1.2,1.56
8.040e-01,1.2,1.56
8.080e-01,1.2,1.56
8.120e-01,1.28,1.56
8.160e-01,1.28,1.56
8.200e-01,1.28,1.4
8.240e-01,1.28,1.4
8.280e-01,1.36,1.4
8.320e-01,1.44,1.32
8.360e-01,1.28,1.32
8.400e-01,1.44,1.32
8.440e-01,1.36,1.32
8.480e-01,1.36,1.4
8.520e-01,1.44,1.48
8.560e-01,1.44,1.56
8.600e-01,1.44,1.56
8.640e-01,1.52,1.64
8.680e-01,1.52,1.48
8.720e-01,1.44,1.64
8.760e-01,1.52,1.72
8.800e-01,1.44,1.64
8.840e-01,1.52,1.56
8.880e-01,1.6,1.56
8.920e-01,1.68,1.48
8.960e-01,1.6,1.4
9.000e-01,1.68,1.4
9.040e-01,1.68,1.4
9.080e-01,1.68,1.56
9.120e-01,1.68,1.48
9.160e-01,1.76,1.56
9.200e-01,1.76,1.72
9.240e-01,1.84,1.72
9.280e-01,1.76,1.72
9.320e-01,1.76,1.72
9.360e-01,1.84,1.8
9.400e-01,1.92,1.8
9.440e-01,1.92,1.8
9.480e-01,1.84,1.96
9.520e-01,1.92,2.04
9.560e-01,1.92,2.2
9.600e-01,1.92,2.36
9.640e-01,2,2.44
9.680e-01,1.92,2.68
9.720e-01,2,2.76
9.760e-01,2,2.84
9.800e-01,2.08,2.84
9.840e-01,2,2.92
9.880e-01,2,3
9.920e-01,2,3.08
9.960e-01,2.08,3
1.000e+00,2.08,3
1.004e+00,2.24,3
1.008e+00,2.16,3.08
1.012e+00,2.16,3.24
1.016e+00,2.24,3.32
1.020e+00,2.16,3.48
1.024e+00,2.32,3.72
1.028e+00,2.32,3.88
1.032e+00,2.24,3.88
1.036e+00,2.32,3.88
1.040e+00,2.24,3.88
1.044e+00,2.32,3.96
1.048e+00,2.32,3.96
1.052e+00,2.32,3.72
1.056e+00,2.4,3.56
1.060e+00,2.4,3.64
1.064e+00,2.48,3.8
1.068e+00,2.4,3.64
1.072e+00,2.48,3.72
1.076e+00,2.48,3.72
1.080e+00,2.48,3.8
1.084e+00,2.4,3.96
1.088e+00,2.48,4.12
1.092e+00,2.56,4.04
1.096e+00,2.56,4.04
1.100e+00,2.56,4.04
1.104e+00,2.56,4.04
1.108e+00,2.64,4.12
1.112e+00,2.64,3.96
1.116e+00,2.64,4.04
1.120e+00,2.72,3.96
1.124e+00,2.64,4.04
1.128e+00,2.72,4.2
1.132e+00,2.72,4.12
1.136e+00,2.72,4.36
1.140e+00,2.72,4.2
1.144e+00,2.72,4.28
1.148e+00,2.72,4.36
1.152e+00,2.72,4.6
1.156e+00,2.88,4.84
1.160e+00,2.88,4.92
1.164e+00,2.8,5
1.168e+00,2.8,5.08
1.172e+00,2.8,5.16
1.176e+00,2.88,5.24
1.180e+00,2.96,5.24
1.184e+00,2.96,5.24
1.188e+00,2.96,5.08
1.192e+00,3.04,5.16
1.196e+00,2.96,5.08
1.200e+00,2.96,4.76
1.204e+00,3.12,4.52
1.208e+00,3.04,4.2
1.212e+00,2.96,4.12
1.216e+00,3.12,3.96
1.220e+00,3.12,3.88
1.224e+00,3.12,4.04
1.228e+00,3.04,4.04
1.232e+00,3.12,4.6
1.236e+00,3.2,4.68
1.240e+00,3.2,4.76
1.244e+00,3.28,4.84
1.248e+00,3.2,4.84
1.252e+00,3.2,4.76
1.256e+00,3.28,4.76
1.260e+00,3.36,4.68
1.264e+00,3.28,4.6
1.268e+00,3.36,4.2
1.272e+00,3.36,4.12
1.276e+00,3.36,4.12
1.280e+00,3.36,4.12
1.284e+00,3.36,4.12
1.288e+00,3.36,3.96
1.292e+00,3.44,4.04
1.296e+00,3.44,3.96
1.300e+00,3.44,3.96
1.304e+00,3.52,3.96
1.308e+00,3.52,3.88
1.312e+00,3.6,3.8
1.316e+00,3.52,3.72
1.320e+00,3.6,3.64
1.324e+00,3.6,3.48
1.328e+00,3.6,3.48
1.332e+00,3.6,3.24
1.336e+00,3.68,3.16
1.340e+00,3.68,3.08
1.344e+00,3.68,2.92
1.348e+00,3.76,2.76
1.352e+00,3.76,2.52
1.356e+00,3.68,2.36
1.360e+00,3.76,2.36
1.364e+00,3.76,2.2
1.368e+00,3.76,2.2
1.372e+00,3.76,2.04
1.376e+00,3.76,2.04
1.380e+00,3.76,1.96
1.384e+00,3.68,1.96
1.388e+00,3.84,1.88
1.392e+00,3.84,2.04
1.396e+00,3.84,2.04
1.400e+00,3.84,2.28
1.404e+00,3.92,2.44
1.408e+00,3.92,2.36
1.412e+00,4,2.2
1.416e+00,4,2.04
1.420e+00,4,1.96
1.424e+00,4,1.8
1.428e+00,4,1.64
1.432e+00,4.08,1.56
1.436e+00,4.08,1.56
1.440e+00,4.16,1.56
1.444e+00,4.08,1.48
1.448e+00,4.16,1.56
1.452e+00,4.08,1.48
1.456e+00,4.08,1.4
1.460e+00,4.16,1.48
1.464e+00,4.24,1.4
1.468e+00,4.24,1.56
1.472e+00,4.24,1.48
1.476e+00,4.24,1.48
1.480e+00,4.24,1.56
1.484e+00,4.32,1.4
1.488e+00,4.32,1.4
1.492e+00,4.32,1.56
1.496e+00,4.4,1.56
1.500e+00,4.32,1.48
1.504e+00,4.24,1.4
1.508e+00,4.32,1.4
1.512e+00,4.4,1.32
1.516e+00,4.48,1.24
1.520e+00,4.4,1.32
1.524e+00,4.48,1.32
1.528e+00,4.48,1.4
1.532e+00,4.56,1.4
1.536e+00,4.56,1.4
1.540e+00,4.48,1.4
1.544e+00,4.4,1.56
1.548e+00,4.48,1.4
1.552e+00,4.4,1.56
1.556e+00,4.4,1.56
1.560e+00,4.32,1.64
1.564e+00,4.32,1.64
1.568e+00,4.32,1.72
1.572e+00,4.32,1.64
1.576e+00,4.32,1.48
1.580e+00,4.32,1.48
1.584e+00,4.24,1.4
1.588e+00,4.24,1.4
1.592e+00,4.32,1.4
1.596e+00,4.16,1.4
1.600e+00,4.16,1.32
1.604e+00,4.16,1.48
1.608e+00,4.16,1.56
1.612e+00,4.16,1.56
1.616e+00,4.08,1.56
1.620e+00,4.16,1.56
1.624e+00,4.08,1.4
1.628e+00,4.08,1.4
1.632e+00,4.08,1.56
1.636e+00,4.08,1.56
1.640e+00,4.08,1.64
1.644e+00,4,1.64
1.648e+00,4,1.8
1.652e+00,3.84,1.8
1.656e+00,4,1.64
1.660e+00,3.84,1.72
1.664e+00,3.92,1.64
1.668e+00,3.92,1.64
1.672e+00,3.76,1.64
1.676e+00,3.84,1.64
1.680e+00,3.92,1.72
1.684e+00,3.84,1.8
1.688e+00,3.76,1.8
1.692e+00,3.76,1.88
1.696e+00,3.76,2.04
1.700e+00,3.76,2.6
1.704e+00,3.76,2.84
1.708e+00,3.68,2.92
1.712e+00,3.6,2.84
1.716e+00,3.6,2.76
1.720e+00,3.68,2.92
1.724e+00,3.6,2.84
1.728e+00,3.6,2.44
1.732e+00,3.52,2.44
1.736e+00,3.52,2.52
1.740e+00,3.6,2.6
1.744e+00,3.6,2.76
1.748e+00,3.52,3.16
1.752e+00,3.52,3.24
1.756e+00,3.44,3.32
1.760e+00,3.44,3.48
1.764e+00,3.52,3.48
1.768e+00,3.44,3.64
1.772e+00,3.36,3.72
1.776e+00,3.44,3.64
1.780e+00,3.44,3.96
1.784e+00,3.44,4.04
1.788e+00,3.36,4.2
1.792e+00,3.36,4.12
1.796e+00,3.28,4.28
1.800e+00,3.28,4.28
1.804e+00,3.28,4.44
1.808e+00,3.28,3.96
1.812e+00,3.2,4.12
1.816e+00,3.2,4.04
1.820e+00,3.28,4.12
1.824e+00,3.2,4.2
1.828e+00,3.12,4.2
1.832e+00,3.2,4.12
1.836e+00,3.12,3.96
1.840e+00,3.12,3.96
1.844e+00,3.04,3.96
1.848e+00,3.04,3.96
1.852e+00,3.04,4.52
1.856e+00,3.04,5.08
1.860e+00,3.04,4.92
1.864e+00,2.96,5.08
1.868e+00,2.8,5.16
1.872e+00,2.88,5.08
1.876e+00,2.96,4.84
1.880e+00,2.88,5.24
1.884e+00,2.96,5.4
1.888e+00,2.88,5.08
1.892e+00,2.88,5.08
1.896e+00,2.8,5
1.900e+00,2.88,4.76
1.904e+00,2.8,4.2
1.908e+00,2.8,4.2
1.912e+00,2.8,4.52
1.916e+00,2.72,4.76
1.920e+00,2.72,4.76
1.924e+00,2.72,4.52
1.928e+00,2.72,4.6
1.932e+00,2.72,4.92
1.936e+00,2.72,4.92
1.940e+00,2.56,4.76
1.944e+00,2.64,4.68
