F86 Grundpraktikum Optik/_45.csv

Model,MDO3024
Firmware Version,1.26

Waveform Type,ANALOG,
Point Format,Y,
Horizontal Units,s,
Horizontal Scale,0.4,
Horizontal Delay,0,
Sample Interval,0.004,
Record Length,1000,
Gating,0.1% to 100.0%,
Probe Attenuation,1,1
Vertical Units,V,V
Vertical Offset,0,0
Vertical Scale,2,0.5
Vertical Position,0,-1.98
,,
,,
,,
Label,,
TIME,CH1,CH2
-2.000e+00,1.76,0.31
-1.996e+00,1.76,0.29
-1.992e+00,1.84,0.27
-1.988e+00,1.92,0.31
-1.984e+00,1.92,0.29
-1.980e+00,1.92,0.27
-1.976e+00,1.92,0.27
-1.972e+00,1.92,0.25
-1.968e+00,1.92,0.23
-1.964e+00,1.92,0.23
-1.960e+00,2,0.25
-1.956e+00,1.92,0.21
-1.952e+00,2.08,0.21
-1.948e+00,2.16,0.21
-1.944e+00,2.08,0.23
-1.940e+00,2.08,0.23
-1.936e+00,2.16,0.19
-1.932e+00,2.08,0.21
-1.928e+00,2.16,0.21
-1.924e+00,2.16,0.23
-1.920e+00,2.08,0.21
-1.916e+00,2.16,0.21
-1.912e+00,2.16,0.23
-1.908e+00,2.16,0.23
-1.904e+00,2.16,0.21
-1.900e+00,2.24,0.21
-1.896e+00,2.24,0.23
-1.892e+00,2.32,0.23
-1.888e+00,2.32,0.25
-1.884e+00,2.4,0.27
-1.880e+00,2.4,0.29
-1.876e+00,2.32,0.25
-1.872e+00,2.4,0.29
-1.868e+00,2.4,0.27
-1.864e+00,2.4,0.31
-1.860e+00,2.4,0.33
-1.856e+00,2.48,0.33
-1.852e+00,2.48,0.35
-1.848e+00,2.48,0.35
-1.844e+00,2.56,0.39
-1.840e+00,2.48,0.39
-1.836e+00,2.48,0.39
-1.832e+00,2.56,0.43
-1.828e+00,2.64,0.41
-1.824e+00,2.56,0.43
-1.820e+00,2.56,0.49
-1.816e+00,2.56,0.45
-1.812e+00,2.64,0.47
-1.808e+00,2.56,0.49
-1.804e+00,2.64,0.51
-1.800e+00,2.72,0.51
-1.796e+00,2.72,0.51
-1.792e+00,2.8,0.57
-1.788e+00,2.8,0.57
-1.784e+00,2.8,0.57
-1.780e+00,2.8,0.59
-1.776e+00,2.8,0.61
-1.772e+00,2.88,0.63
-1.768e+00,2.8,0.63
-1.764e+00,2.8,0.67
-1.760e+00,2.8,0.67
-1.756e+00,2.88,0.67
-1.752e+00,2.96,0.69
-1.748e+00,2.88,0.73
-1.744e+00,2.96,0.73
-1.740e+00,2.96,0.75
-1.736e+00,3.04,0.79
-1.732e+00,2.96,0.79
-1.728e+00,3.04,0.79
-1.724e+00,2.96,0.81
-1.720e+00,3.04,0.85
-1.716e+00,3.04,0.87
-1.712e+00,3.12,0.87
-1.708e+00,3.12,0.91
-1.704e+00,3.12,0.93
-1.700e+00,3.12,0.93
-1.696e+00,3.2,0.95
-1.692e+00,3.2,0.97
-1.688e+00,3.2,0.99
-1.684e+00,3.2,0.99
-1.680e+00,3.28,1.01
-1.676e+00,3.28,1.03
-1.672e+00,3.28,1.01
-1.668e+00,3.28,1.05
-1.664e+00,3.28,1.07
-1.660e+00,3.36,1.05
-1.656e+00,3.36,1.09
-1.652e+00,3.36,1.09
-1.648e+00,3.52,1.11
-1.644e+00,3.36,1.11
-1.640e+00,3.44,1.11
-1.636e+00,3.52,1.11
-1.632e+00,3.44,1.11
-1.628e+00,3.44,1.11
-1.624e+00,3.52,1.13
-1.620e+00,3.52,1.09
-1.616e+00,3.6,1.11
-1.612e+00,3.52,1.11
-1.608e+00,3.52,1.13
-1.604e+00,3.52,1.09
-1.600e+00,3.6,1.11
-1.596e+00,3.68,1.09
-1.592e+00,3.68,1.09
-1.588e+00,3.6,1.09
-1.584e+00,3.6,1.09
-1.580e+00,3.68,1.09
-1.576e+00,3.84,1.05
-1.572e+00,3.76,1.07
-1.568e+00,3.76,1.05
-1.564e+00,3.68,1.05
-1.560e+00,3.84,1.05
-1.556e+00,3.76,1.03
-1.552e+00,3.84,1.05
-1.548e+00,3.84,1.03
-1.544e+00,3.76,1.05
-1.540e+00,3.84,1.01
-1.536e+00,3.84,1.01
-1.532e+00,3.92,1.03
-1.528e+00,4,0.99
-1.524e+00,3.92,0.99
-1.520e+00,3.92,0.99
-1.516e+00,4,0.99
-1.512e+00,4,0.97
-1.508e+00,4.08,0.97
-1.504e+00,4,0.95
-1.500e+00,4,0.95
-1.496e+00,4.08,0.95
-1.492e+00,4.24,0.93
-1.488e+00,4.08,0.89
-1.484e+00,4.08,0.91
-1.480e+00,4.24,0.87
-1.476e+00,4.24,0.87
-1.472e+00,4.24,0.85
-1.468e+00,4.32,0.83
-1.464e+00,4.16,0.81
-1.460e+00,4.24,0.77
-1.456e+00,4.32,0.77
-1.452e+00,4.32,0.73
-1.448e+00,4.4,0.73
-1.444e+00,4.32,0.71
-1.440e+00,4.32,0.69
-1.436e+00,4.4,0.67
-1.432e+00,4.4,0.65
-1.428e+00,4.4,0.63
-1.424e+00,4.4,0.61
-1.420e+00,4.4,0.61
-1.416e+00,4.48,0.57
-1.412e+00,4.48,0.59
-1.408e+00,4.48,0.53
-1.404e+00,4.48,0.53
-1.400e+00,4.56,0.51
-1.396e+00,4.48,0.49
-1.392e+00,4.48,0.49
-1.388e+00,4.4,0.47
-1.384e+00,4.4,0.49
-1.380e+00,4.4,0.51
-1.376e+00,4.4,0.51
-1.372e+00,4.48,0.55
-1.368e+00,4.24,0.55
-1.364e+00,4.4,0.57
-1.360e+00,4.32,0.59
-1.356e+00,4.32,0.59
-1.352e+00,4.32,0.61
-1.348e+00,4.32,0.61
-1.344e+00,4.24,0.65
-1.340e+00,4.16,0.67
-1.336e+00,4.24,0.67
-1.332e+00,4.08,0.71
-1.328e+00,4.16,0.71
-1.324e+00,4.16,0.75
-1.320e+00,4.16,0.77
-1.316e+00,4.08,0.77
-1.312e+00,4.08,0.81
-1.308e+00,4.08,0.83
-1.304e+00,4,0.85
-1.300e+00,4.08,0.85
-1.296e+00,3.92,0.87
-1.292e+00,3.92,0.89
-1.288e+00,4,0.93
-1.284e+00,3.84,0.93
-1.280e+00,4,0.93
-1.276e+00,3.92,0.95
-1.272e+00,4,0.97
-1.268e+00,3.84,0.97
-1.264e+00,3.92,0.97
-1.260e+00,3.92,0.99
-1.256e+00,3.84,1.01
-1.252e+00,3.76,0.99
-1.248e+00,3.84,1.01
-1.244e+00,3.84,0.99
-1.240e+00,3.76,1.01
-1.236e+00,3.76,1.01
-1.232e+00,3.76,1.05
-1.228e+00,3.6,1.05
-1.224e+00,3.76,1.03
-1.220e+00,3.76,1.03
-1.216e+00,3.68,1.05
-1.212e+00,3.68,1.05
-1.208e+00,3.6,1.05
-1.204e+00,3.68,1.09
-1.200e+00,3.6,1.09
-1.196e+00,3.6,1.09
-1.192e+00,3.6,1.05
-1.188e+00,3.6,1.09
-1.184e+00,3.52,1.09
-1.180e+00,3.52,1.09
-1.176e+00,3.44,1.09
-1.172e+00,3.44,1.09
-1.168e+00,3.44,1.11
-1.164e+00,3.44,1.11
-1.160e+00,3.36,1.11
-1.156e+00,3.36,1.09
-1.152e+00,3.36,1.09
-1.148e+00,3.36,1.11
-1.144e+00,3.36,1.09
-1.140e+00,3.36,1.09
-1.136e+00,3.2,1.09
-1.132e+00,3.28,1.09
-1.128e+00,3.28,1.09
-1.124e+00,3.28,1.09
-1.120e+00,3.2,1.07
-1.116e+00,3.12,1.05
-1.112e+00,3.12,1.05
-1.108e+00,3.2,1.03
-1.104e+00,3.12,1.01
-1.100e+00,3.12,1.01
-1.096e+00,3.12,0.99
-1.092e+00,3.12,0.99
-1.088e+00,3.04,0.97
-1.084e+00,3.12,0.95
-1.080e+00,3.12,0.95
-1.076e+00,3.04,0.91
-1.072e+00,2.96,0.91
-1.068e+00,2.88,0.87
-1.064e+00,2.96,0.85
-1.060e+00,2.88,0.85
-1.056e+00,2.88,0.81
-1.052e+00,2.88,0.81
-1.048e+00,2.88,0.77
-1.044e+00,2.88,0.77
-1.040e+00,2.8,0.75
-1.036e+00,2.88,0.71
-1.032e+00,2.8,0.71
-1.028e+00,2.8,0.69
-1.024e+00,2.8,0.69
-1.020e+00,2.72,0.65
-1.016e+00,2.72,0.63
-1.012e+00,2.72,0.65
-1.008e+00,2.64,0.63
-1.004e+00,2.72,0.59
-1.000e+00,2.72,0.59
-9.960e-01,2.72,0.57
-9.920e-01,2.56,0.55
-9.880e-01,2.64,0.55
-9.840e-01,2.64,0.53
-9.800e-01,2.64,0.51
-9.760e-01,2.56,0.51
-9.720e-01,2.56,0.49
-9.680e-01,2.56,0.47
-9.640e-01,2.56,0.45
-9.600e-01,2.48,0.43
-9.560e-01,2.48,0.41
-9.520e-01,2.48,0.43
-9.480e-01,2.4,0.39
-9.440e-01,2.48,0.39
-9.400e-01,2.4,0.39
-9.360e-01,2.48,0.35
-9.320e-01,2.4,0.33
-9.280e-01,2.32,0.35
-9.240e-01,2.4,0.33
-9.200e-01,2.32,0.31
-9.160e-01,2.32,0.31
-9.120e-01,2.24,0.27
-9.080e-01,2.16,0.27
-9.040e-01,2.24,0.29
-9.000e-01,2.24,0.29
-8.960e-01,2.24,0.25
-8.920e-01,2.16,0.23
-8.880e-01,2.24,0.23
-8.840e-01,2.16,0.23
-8.800e-01,2.08,0.23
-8.760e-01,2.16,0.23
-8.720e-01,2,0.21
-8.680e-01,2,0.23
-8.640e-01,2,0.21
-8.600e-01,2,0.21
-8.560e-01,2.16,0.23
-8.520e-01,2.08,0.21
-8.480e-01,2.08,0.21
-8.440e-01,2,0.23
-8.400e-01,1.92,0.21
-8.360e-01,2,0.23
-8.320e-01,1.92,0.23
-8.280e-01,1.92,0.23
-8.240e-01,1.84,0.25
-8.200e-01,1.84,0.23
-8.160e-01,1.92,0.27
-8.120e-01,1.84,0.25
-8.080e-01,1.92,0.27
-8.040e-01,1.76,0.27
-8.000e-01,1.76,0.27
-7.960e-01,1.76,0.29
-7.920e-01,1.84,0.29
-7.880e-01,1.68,0.31
-7.840e-01,1.68,0.31
-7.800e-01,1.68,0.29
-7.760e-01,1.6,0.35
-7.720e-01,1.68,0.37
-7.680e-01,1.52,0.35
-7.640e-01,1.68,0.37
-7.600e-01,1.52,0.39
-7.560e-01,1.6,0.39
-7.520e-01,1.52,0.43
-7.480e-01,1.52,0.45
-7.440e-01,1.6,0.45
-7.400e-01,1.52,0.47
-7.360e-01,1.52,0.49
-7.320e-01,1.52,0.51
-7.280e-01,1.44,0.53
-7.240e-01,1.44,0.55
-7.200e-01,1.36,0.55
-7.160e-01,1.44,0.59
-7.120e-01,1.6,0.61
-7.080e-01,1.44,0.61
-7.040e-01,1.44,0.67
-7.000e-01,1.36,0.65
-6.960e-01,1.36,0.71
-6.920e-01,1.28,0.71
-6.880e-01,1.36,0.73
-6.840e-01,1.28,0.75
-6.800e-01,1.2,0.77
-6.760e-01,1.28,0.77
-6.720e-01,1.2,0.81
-6.680e-01,1.2,0.81
-6.640e-01,1.12,0.81
-6.600e-01,1.12,0.83
-6.560e-01,1.12,0.87
-6.520e-01,1.12,0.87
-6.480e-01,1.12,0.87
-6.440e-01,0.96,0.89
-6.400e-01,1.04,0.87
-6.360e-01,1.04,0.93
-6.320e-01,1.04,0.93
-6.280e-01,1.04,0.93
-6.240e-01,0.96,0.95
-6.200e-01,0.96,0.95
-6.160e-01,0.96,0.97
-6.120e-01,0.96,0.97
-6.080e-01,1.04,0.97
-6.040e-01,0.88,0.97
-6.000e-01,0.88,0.99
-5.960e-01,0.88,0.99
-5.920e-01,0.8,1.01
-5.880e-01,0.88,1.01
-5.840e-01,0.8,1.03
-5.800e-01,0.8,1.03
-5.760e-01,0.8,1.03
-5.720e-01,0.72,1.05
-5.680e-01,0.72,1.09
-5.640e-01,0.72,1.09
-5.600e-01,0.72,1.09
-5.560e-01,0.64,1.11
-5.520e-01,0.64,1.13
-5.480e-01,0.56,1.11
-5.440e-01,0.64,1.13
-5.400e-01,0.64,1.13
-5.360e-01,0.56,1.15
-5.320e-01,0.56,1.13
-5.280e-01,0.56,1.13
-5.240e-01,0.56,1.17
-5.200e-01,0.56,1.15
-5.160e-01,0.48,1.15
-5.120e-01,0.56,1.11
-5.080e-01,0.48,1.13
-5.040e-01,0.4,1.15
-5.000e-01,0.4,1.11
-4.960e-01,0.4,1.11
-4.920e-01,0.32,1.09
-4.880e-01,0.4,1.09
-4.840e-01,0.4,1.07
-4.800e-01,0.32,1.09
-4.760e-01,0.24,1.03
-4.720e-01,0.24,1.01
-4.680e-01,0.24,1.01
-4.640e-01,0.32,0.99
-4.600e-01,0.16,0.99
-4.560e-01,0.24,0.97
-4.520e-01,0.16,0.97
-4.480e-01,0.16,0.97
-4.440e-01,0.16,0.93
-4.400e-01,0.16,0.93
-4.360e-01,0.16,0.93
-4.320e-01,0.16,0.89
-4.280e-01,0.08,0.87
-4.240e-01,0.16,0.87
-4.200e-01,0,0.87
-4.160e-01,0.08,0.85
-4.120e-01,0,0.83
-4.080e-01,0.08,0.83
-4.040e-01,0,0.81
-4.000e-01,0,0.81
-3.960e-01,0,0.79
-3.920e-01,0,0.79
-3.880e-01,0,0.79
-3.840e-01,0,0.79
-3.800e-01,0,0.77
-3.760e-01,0,0.73
-3.720e-01,0.08,0.77
-3.680e-01,0,0.75
-3.640e-01,0.08,0.77
-3.600e-01,0.08,0.75
-3.560e-01,0.08,0.75
-3.520e-01,0,0.75
-3.480e-01,0.16,0.75
-3.440e-01,0.16,0.73
-3.400e-01,0.16,0.81
-3.360e-01,0.24,0.83
-3.320e-01,0.16,0.85
-3.280e-01,0.24,0.87
-3.240e-01,0.24,0.91
-3.200e-01,0.32,0.89
-3.160e-01,0.24,0.93
-3.120e-01,0.32,0.95
-3.080e-01,0.32,0.95
-3.040e-01,0.32,0.97
-3.000e-01,0.24,0.97
-2.960e-01,0.24,0.99
-2.920e-01,0.32,1.01
-2.880e-01,0.48,0.99
-2.840e-01,0.48,1.03
-2.800e-01,0.48,1.05
-2.760e-01,0.48,1.03
-2.720e-01,0.48,1.09
-2.680e-01,0.48,1.07
-2.640e-01,0.48,1.09
-2.600e-01,0.56,1.11
-2.560e-01,0.48,1.11
-2.520e-01,0.56,1.11
-2.480e-01,0.56,1.13
-2.440e-01,0.64,1.15
-2.400e-01,0.56,1.15
-2.360e-01,0.64,1.15
-2.320e-01,0.64,1.15
-2.280e-01,0.64,1.13
-2.240e-01,0.64,1.15
-2.200e-01,0.72,1.13
-2.160e-01,0.8,1.13
-2.120e-01,0.8,1.13
-2.080e-01,0.72,1.11
-2.040e-01,0.8,1.11
-2.000e-01,0.88,1.13
-1.960e-01,0.8,1.11
-1.920e-01,0.8,1.07
-1.880e-01,0.88,1.09
-1.840e-01,0.88,1.07
-1.800e-01,0.88,1.05
-1.760e-01,0.96,1.05
-1.720e-01,0.88,1.05
-1.680e-01,0.88,1.03
-1.640e-01,0.96,1.01
-1.600e-01,0.96,0.99
-1.560e-01,1.04,0.99
-1.520e-01,1.04,0.99
-1.480e-01,1.04,0.97
-1.440e-01,1.04,0.97
-1.400e-01,1.04,0.97
-1.360e-01,1.12,0.93
-1.320e-01,1.12,0.95
-1.280e-01,1.12,0.95
-1.240e-01,1.12,0.91
-1.200e-01,1.2,0.91
-1.160e-01,1.2,0.91
-1.120e-01,1.12,0.87
-1.080e-01,1.2,0.87
-1.040e-01,1.28,0.87
-1.000e-01,1.28,0.85
-9.600e-02,1.28,0.83
-9.200e-02,1.28,0.81
-8.800e-02,1.44,0.81
-8.400e-02,1.28,0.77
-8.000e-02,1.36,0.79
-7.600e-02,1.28,0.75
-7.200e-02,1.36,0.73
-6.800e-02,1.28,0.71
-6.400e-02,1.36,0.71
-6.000e-02,1.44,0.67
-5.600e-02,1.44,0.65
-5.200e-02,1.44,0.65
-4.800e-02,1.44,0.61
-4.400e-02,1.52,0.61
-4.000e-02,1.6,0.61
-3.600e-02,1.52,0.57
-3.200e-02,1.6,0.55
-2.800e-02,1.52,0.55
-2.400e-02,1.52,0.49
-2.000e-02,1.68,0.47
-1.600e-02,1.6,0.47
-1.200e-02,1.6,0.43
-8.000e-03,1.6,0.45
-4.000e-03,1.68,0.41
2.000e-15,1.68,0.39
4.000e-03,1.76,0.37
8.000e-03,1.76,0.37
1.200e-02,1.76,0.35
1.600e-02,1.84,0.33
2.000e-02,1.84,0.33
2.400e-02,1.84,0.31
2.800e-02,1.84,0.31
3.200e-02,1.84,0.29
3.600e-02,2,0.27
4.000e-02,1.92,0.27
4.400e-02,1.84,0.27
4.800e-02,1.92,0.25
5.200e-02,1.92,0.25
5.600e-02,1.92,0.25
6.000e-02,1.92,0.23
6.400e-02,1.92,0.23
6.800e-02,1.92,0.23
7.200e-02,2.08,0.23
7.600e-02,2.08,0.23
8.000e-02,2.24,0.23
8.400e-02,2.08,0.19
8.800e-02,2.16,0.21
9.200e-02,2.16,0.21
9.600e-02,2.08,0.21
1.000e-01,2.08,0.21
1.040e-01,2.24,0.23
1.080e-01,2.16,0.21
1.120e-01,2.24,0.23
1.160e-01,2.24,0.21
1.200e-01,2.24,0.23
1.240e-01,2.24,0.21
1.280e-01,2.24,0.23
1.320e-01,2.32,0.23
1.360e-01,2.32,0.25
1.400e-01,2.48,0.27
1.440e-01,2.4,0.27
1.480e-01,2.4,0.29
1.520e-01,2.48,0.29
1.560e-01,2.4,0.31
1.600e-01,2.4,0.33
1.640e-01,2.48,0.31
1.680e-01,2.48,0.33
1.720e-01,2.48,0.35
1.760e-01,2.48,0.35
1.800e-01,2.48,0.35
1.840e-01,2.56,0.37
1.880e-01,2.56,0.41
1.920e-01,2.56,0.41
1.960e-01,2.56,0.43
2.000e-01,2.56,0.45
2.040e-01,2.56,0.45
2.080e-01,2.64,0.47
2.120e-01,2.64,0.49
2.160e-01,2.64,0.49
2.200e-01,2.64,0.51
2.240e-01,2.72,0.51
2.280e-01,2.64,0.55
2.320e-01,2.72,0.55
2.360e-01,2.8,0.55
2.400e-01,2.8,0.57
2.440e-01,2.8,0.59
2.480e-01,2.8,0.61
2.520e-01,2.8,0.65
2.560e-01,2.72,0.65
2.600e-01,2.72,0.65
2.640e-01,2.88,0.69
2.680e-01,2.96,0.69
2.720e-01,2.96,0.71
2.760e-01,2.96,0.71
2.800e-01,2.96,0.71
2.840e-01,2.88,0.75
2.880e-01,3.04,0.77
2.920e-01,2.96,0.79
2.960e-01,2.96,0.83
3.000e-01,3.04,0.83
3.040e-01,2.96,0.87
3.080e-01,3.04,0.85
3.120e-01,3.12,0.89
3.160e-01,3.12,0.93
3.200e-01,3.12,0.91
3.240e-01,3.12,0.93
3.280e-01,3.12,0.97
3.320e-01,3.2,0.97
3.360e-01,3.2,0.99
3.400e-01,3.28,0.99
3.440e-01,3.2,1.01
3.480e-01,3.28,1.03
3.520e-01,3.28,1.03
3.560e-01,3.28,1.05
3.600e-01,3.28,1.07
3.640e-01,3.28,1.05
3.680e-01,3.36,1.07
3.720e-01,3.36,1.09
3.760e-01,3.36,1.11
3.800e-01,3.44,1.09
3.840e-01,3.44,1.09
3.880e-01,3.52,1.09
3.920e-01,3.52,1.11
3.960e-01,3.52,1.11
4.000e-01,3.52,1.13
4.040e-01,3.52,1.11
4.080e-01,3.44,1.11
4.120e-01,3.52,1.09
4.160e-01,3.52,1.09
4.200e-01,3.6,1.09
4.240e-01,3.6,1.11
4.280e-01,3.6,1.09
4.320e-01,3.68,1.09
4.360e-01,3.6,1.09
4.400e-01,3.68,1.11
4.440e-01,3.76,1.07
4.480e-01,3.76,1.07
4.520e-01,3.68,1.05
4.560e-01,3.76,1.07
4.600e-01,3.84,1.05
4.640e-01,3.76,1.05
4.680e-01,3.84,1.03
4.720e-01,3.84,1.03
4.760e-01,3.92,1.03
4.800e-01,3.84,1.01
4.840e-01,3.84,1.03
4.880e-01,3.92,1.01
4.920e-01,4,1.01
4.960e-01,4,0.99
5.000e-01,4,0.99
5.040e-01,4,0.99
5.080e-01,4,0.99
5.120e-01,4,0.97
5.160e-01,3.92,0.97
5.200e-01,4,0.95
5.240e-01,4.08,0.97
5.280e-01,4.08,0.95
5.320e-01,4.08,0.89
5.360e-01,4.16,0.89
5.400e-01,4.24,0.89
5.440e-01,4.16,0.87
5.480e-01,4.16,0.87
5.520e-01,4.16,0.85
5.560e-01,4.16,0.81
5.600e-01,4.24,0.81
5.640e-01,4.24,0.79
5.680e-01,4.32,0.77
5.720e-01,4.24,0.77
5.760e-01,4.32,0.73
5.800e-01,4.32,0.71
5.840e-01,4.32,0.69
5.880e-01,4.4,0.65
5.920e-01,4.4,0.65
5.960e-01,4.4,0.63
6.000e-01,4.32,0.61
6.040e-01,4.32,0.59
6.080e-01,4.48,0.57
6.120e-01,4.48,0.57
6.160e-01,4.48,0.53
6.200e-01,4.56,0.53
6.240e-01,4.56,0.51
6.280e-01,4.48,0.49
6.320e-01,4.4,0.47
6.360e-01,4.48,0.47
6.400e-01,4.4,0.51
6.440e-01,4.4,0.51
6.480e-01,4.4,0.51
6.520e-01,4.32,0.53
6.560e-01,4.4,0.55
6.600e-01,4.4,0.55
6.640e-01,4.4,0.57
6.680e-01,4.4,0.61
6.720e-01,4.32,0.61
6.760e-01,4.32,0.63
6.800e-01,4.24,0.67
6.840e-01,4.24,0.67
6.880e-01,4.24,0.69
6.920e-01,4.16,0.71
6.960e-01,4.24,0.71
7.000e-01,4.16,0.75
7.040e-01,4.16,0.77
7.080e-01,4.16,0.77
7.120e-01,4.16,0.79
7.160e-01,4.08,0.85
7.200e-01,4,0.85
7.240e-01,4.08,0.85
7.280e-01,4,0.87
7.320e-01,4,0.87
7.360e-01,3.92,0.93
7.400e-01,4,0.91
7.440e-01,3.92,0.93
7.480e-01,3.92,0.95
7.520e-01,4,0.95
7.560e-01,3.92,0.97
7.600e-01,3.92,0.97
7.640e-01,3.92,0.99
7.680e-01,3.84,0.99
7.720e-01,3.84,1.01
7.760e-01,3.76,1.01
7.800e-01,3.84,1.01
7.840e-01,3.84,1.03
7.880e-01,3.76,1.03
7.920e-01,3.76,1.03
7.960e-01,3.76,1.03
8.000e-01,3.68,1.03
8.040e-01,3.6,1.05
8.080e-01,3.68,1.05
8.120e-01,3.6,1.05
8.160e-01,3.68,1.05
8.200e-01,3.6,1.09
8.240e-01,3.6,1.05
8.280e-01,3.52,1.09
8.320e-01,3.6,1.07
8.360e-01,3.52,1.07
8.400e-01,3.52,1.09
8.440e-01,3.44,1.11
8.480e-01,3.52,1.09
8.520e-01,3.52,1.09
8.560e-01,3.36,1.13
8.600e-01,3.44,1.13
8.640e-01,3.44,1.09
8.680e-01,3.36,1.11
8.720e-01,3.36,1.09
8.760e-01,3.36,1.11
8.800e-01,3.36,1.09
8.840e-01,3.36,1.09
8.880e-01,3.36,1.13
8.920e-01,3.2,1.07
8.960e-01,3.28,1.07
9.000e-01,3.28,1.07
9.040e-01,3.2,1.09
9.080e-01,3.28,1.07
9.120e-01,3.2,1.05
9.160e-01,3.12,1.03
9.200e-01,3.12,0.99
9.240e-01,3.04,1.01
9.280e-01,3.12,1.01
9.320e-01,3.12,0.97
9.360e-01,3.04,0.97
9.400e-01,3.04,0.97
9.440e-01,3.04,0.95
9.480e-01,3.04,0.91
9.520e-01,3.04,0.87
9.560e-01,2.96,0.87
9.600e-01,3.04,0.87
9.640e-01,2.96,0.85
9.680e-01,2.88,0.83
9.720e-01,2.96,0.79
9.760e-01,3.04,0.81
9.800e-01,2.8,0.77
9.840e-01,2.88,0.77
9.880e-01,2.8,0.73
9.920e-01,2.8,0.73
9.960e-01,2.8,0.69
1.000e+00,2.88,0.67
1.004e+00,2.8,0.65
1.008e+00,2.72,0.65
1.012e+00,2.72,0.65
1.016e+00,2.72,0.63
1.020e+00,2.64,0.61
1.024e+00,2.64,0.59
1.028e+00,2.72,0.55
1.032e+00,2.72,0.55
1.036e+00,2.64,0.53
1.040e+00,2.56,0.53
1.044e+00,2.64,0.51
1.048e+00,2.56,0.49
1.052e+00,2.48,0.47
1.056e+00,2.48,0.45
1.060e+00,2.48,0.45
1.064e+00,2.48,0.45
1.068e+00,2.48,0.43
1.072e+00,2.48,0.41
1.076e+00,2.48,0.41
1.080e+00,2.48,0.39
1.084e+00,2.48,0.39
1.088e+00,2.4,0.37
1.092e+00,2.4,0.35
1.096e+00,2.4,0.35
1.100e+00,2.32,0.31
1.104e+00,2.32,0.31
1.108e+00,2.4,0.29
1.112e+00,2.24,0.29
1.116e+00,2.24,0.29
1.120e+00,2.32,0.29
1.124e+00,2.24,0.25
1.128e+00,2.32,0.25
1.132e+00,2.24,0.27
1.136e+00,2.16,0.25
1.140e+00,2.24,0.23
1.144e+00,2.16,0.23
1.148e+00,2.16,0.23
1.152e+00,2.08,0.21
1.156e+00,2.16,0.23
1.160e+00,2.16,0.23
1.164e+00,2.08,0.21
1.168e+00,2,0.21
1.172e+00,2.08,0.21
1.176e+00,1.84,0.21
1.180e+00,2,0.21
1.184e+00,2,0.23
1.188e+00,2,0.21
1.192e+00,1.92,0.23
1.196e+00,1.84,0.23
1.200e+00,1.92,0.25
1.204e+00,1.84,0.25
1.208e+00,1.84,0.23
1.212e+00,1.92,0.23
1.216e+00,1.84,0.25
1.220e+00,1.76,0.27
1.224e+00,1.84,0.27
1.228e+00,1.76,0.29
1.232e+00,1.68,0.29
1.236e+00,1.76,0.29
1.240e+00,1.76,0.33
1.244e+00,1.68,0.31
1.248e+00,1.68,0.33
1.252e+00,1.6,0.33
1.256e+00,1.52,0.35
1.260e+00,1.6,0.35
1.264e+00,1.52,0.37
1.268e+00,1.6,0.39
1.272e+00,1.6,0.41
1.276e+00,1.52,0.43
1.280e+00,1.52,0.47
1.284e+00,1.52,0.47
1.288e+00,1.44,0.49
1.292e+00,1.44,0.53
1.296e+00,1.36,0.53
1.300e+00,1.44,0.55
1.304e+00,1.44,0.57
1.308e+00,1.44,0.59
1.312e+00,1.36,0.63
1.316e+00,1.36,0.61
1.320e+00,1.36,0.65
1.324e+00,1.36,0.67
1.328e+00,1.36,0.67
1.332e+00,1.36,0.71
1.336e+00,1.36,0.73
1.340e+00,1.36,0.73
1.344e+00,1.2,0.77
1.348e+00,1.28,0.79
1.352e+00,1.28,0.79
1.356e+00,1.12,0.79
1.360e+00,1.2,0.83
1.364e+00,1.12,0.83
1.368e+00,1.2,0.85
1.372e+00,1.04,0.87
1.376e+00,1.04,0.87
1.380e+00,1.12,0.91
1.384e+00,1.04,0.89
1.388e+00,1.12,0.91
1.392e+00,1.04,0.91
1.396e+00,0.96,0.95
1.400e+00,0.96,0.95
1.404e+00,0.96,0.93
1.408e+00,0.88,0.97
1.412e+00,0.96,0.97
1.416e+00,0.88,0.99
1.420e+00,0.88,0.97
1.424e+00,0.88,0.99
1.428e+00,0.88,1.01
1.432e+00,0.8,1.01
1.436e+00,0.8,1.01
1.440e+00,0.8,1.03
1.444e+00,0.8,1.03
1.448e+00,0.72,1.05
1.452e+00,0.72,1.07
1.456e+00,0.8,1.09
1.460e+00,0.72,1.09
1.464e+00,0.72,1.09
1.468e+00,0.64,1.11
1.472e+00,0.72,1.09
1.476e+00,0.64,1.11
1.480e+00,0.56,1.13
1.484e+00,0.64,1.17
1.488e+00,0.56,1.13
1.492e+00,0.56,1.13
1.496e+00,0.64,1.15
1.500e+00,0.56,1.15
1.504e+00,0.4,1.13
1.508e+00,0.32,1.17
1.512e+00,0.48,1.13
1.516e+00,0.48,1.13
1.520e+00,0.48,1.11
1.524e+00,0.48,1.11
1.528e+00,0.48,1.11
1.532e+00,0.4,1.09
1.536e+00,0.32,1.09
1.540e+00,0.4,1.05
1.544e+00,0.32,1.05
1.548e+00,0.24,1.03
1.552e+00,0.32,0.99
1.556e+00,0.32,1.03
1.560e+00,0.24,0.99
1.564e+00,0.32,0.99
1.568e+00,0.24,0.99
1.572e+00,0.24,0.97
1.576e+00,0.16,0.97
1.580e+00,0.16,0.95
1.584e+00,0.24,0.91
1.588e+00,0.08,0.93
1.592e+00,0.08,0.91
1.596e+00,0.16,0.87
1.600e+00,0.08,0.85
1.604e+00,0.08,0.85
1.608e+00,0,0.85
1.612e+00,0.08,0.81
1.616e+00,0.08,0.85
1.620e+00,0,0.83
1.624e+00,0,0.81
1.628e+00,0,0.79
1.632e+00,0,0.79
1.636e+00,0,0.79
1.640e+00,-0.08,0.77
1.644e+00,0,0.81
1.648e+00,0,0.77
1.652e+00,0.08,0.77
1.656e+00,0,0.77
1.660e+00,0.08,0.75
1.664e+00,0.08,0.77
1.668e+00,0.16,0.77
1.672e+00,0.08,0.77
1.676e+00,0.24,0.77
1.680e+00,0.16,0.73
1.684e+00,0.16,0.77
1.688e+00,0.24,0.83
1.692e+00,0.16,0.85
1.696e+00,0.32,0.87
1.700e+00,0.32,0.89
1.704e+00,0.24,0.91
1.708e+00,0.32,0.93
1.712e+00,0.4,0.93
1.716e+00,0.32,0.95
1.720e+00,0.32,0.97
1.724e+00,0.32,0.97
1.728e+00,0.4,0.99
1.732e+00,0.48,1.01
1.736e+00,0.4,1.03
1.740e+00,0.4,1.03
1.744e+00,0.4,1.03
1.748e+00,0.48,1.07
1.752e+00,0.48,1.07
1.756e+00,0.48,1.09
1.760e+00,0.48,1.09
1.764e+00,0.56,1.11
1.768e+00,0.48,1.11
1.772e+00,0.48,1.11
1.776e+00,0.56,1.13
1.780e+00,0.56,1.13
1.784e+00,0.64,1.17
1.788e+00,0.64,1.13
1.792e+00,0.72,1.15
1.796e+00,0.72,1.15
1.800e+00,0.72,1.15
1.804e+00,0.56,1.15
1.808e+00,0.72,1.17
1.812e+00,0.72,1.11
1.816e+00,0.72,1.13
1.820e+00,0.72,1.13
1.824e+00,0.72,1.11
1.828e+00,0.8,1.11
1.832e+00,0.88,1.09
1.836e+00,0.96,1.07
1.840e+00,0.96,1.07
1.844e+00,0.88,1.05
1.848e+00,0.88,1.03
1.852e+00,0.88,1.03
1.856e+00,0.88,1.01
1.860e+00,0.96,1.01
1.864e+00,0.96,0.99
1.868e+00,0.96,0.99
1.872e+00,1.12,0.97
1.876e+00,0.96,0.97
1.880e+00,1.04,0.97
1.884e+00,1.04,0.97
1.888e+00,1.04,0.95
