F86 Grundpraktikum Optik/tek0005RF1.csv

Model,MDO3024
Firmware Version,1.26

Waveform Type,ANALOG
Point Format,Y
Horizontal Units,s
Horizontal Scale,0.4
Horizontal Delay,0
Sample Interval,0.004
Record Length,1000
Gating,0.1% to 100.0%
Probe Attenuation,1
Vertical Units,V
Vertical Offset,0
Vertical Scale,2
Vertical Position,0
,
,
,
Label,
TIME,REF1
-2.000e+00,0.76125
-1.996e+00,0.751875
-1.992e+00,0.7425
-1.988e+00,0.7325
-1.984e+00,0.721562
-1.980e+00,0.710625
-1.976e+00,0.704375
-1.972e+00,0.691875
-1.968e+00,0.68125
-1.964e+00,0.667813
-1.960e+00,0.654687
-1.956e+00,0.64375
-1.952e+00,0.632812
-1.948e+00,0.624375
-1.944e+00,0.61125
-1.940e+00,0.598125
-1.936e+00,0.589375
-1.932e+00,0.579375
-1.928e+00,0.57
-1.924e+00,0.5575
-1.920e+00,0.5475
-1.916e+00,0.539062
-1.912e+00,0.527813
-1.908e+00,0.516563
-1.904e+00,0.508437
-1.900e+00,0.498438
-1.896e+00,0.489063
-1.892e+00,0.479063
-1.888e+00,0.46875
-1.884e+00,0.458125
-1.880e+00,0.44875
-1.876e+00,0.437812
-1.872e+00,0.42625
-1.868e+00,0.416875
-1.864e+00,0.405313
-1.860e+00,0.396562
-1.856e+00,0.386563
-1.852e+00,0.376563
-1.848e+00,0.365625
-1.844e+00,0.355938
-1.840e+00,0.344375
-1.836e+00,0.335
-1.832e+00,0.3225
-1.828e+00,0.311875
-1.824e+00,0.300938
-1.820e+00,0.290625
-1.816e+00,0.281562
-1.812e+00,0.272188
-1.808e+00,0.260625
-1.804e+00,0.249062
-1.800e+00,0.237813
-1.796e+00,0.230938
-1.792e+00,0.237187
-1.788e+00,0.247188
-1.784e+00,0.255
-1.780e+00,0.265937
-1.776e+00,0.277813
-1.772e+00,0.287813
-1.768e+00,0.296875
-1.764e+00,0.307188
-1.760e+00,0.319375
-1.756e+00,0.332813
-1.752e+00,0.341562
-1.748e+00,0.35375
-1.744e+00,0.364687
-1.740e+00,0.374688
-1.736e+00,0.384063
-1.732e+00,0.394062
-1.728e+00,0.406562
-1.724e+00,0.415938
-1.720e+00,0.425312
-1.716e+00,0.435312
-1.712e+00,0.444063
-1.708e+00,0.455625
-1.704e+00,0.465625
-1.700e+00,0.476875
-1.696e+00,0.489687
-1.692e+00,0.496875
-1.688e+00,0.508437
-1.684e+00,0.516563
-1.680e+00,0.527188
-1.676e+00,0.5375
-1.672e+00,0.5475
-1.668e+00,0.5575
-1.664e+00,0.56625
-1.660e+00,0.57625
-1.656e+00,0.58625
-1.652e+00,0.595625
-1.648e+00,0.606563
-1.644e+00,0.620313
-1.640e+00,0.628125
-1.636e+00,0.640625
-1.632e+00,0.652188
-1.628e+00,0.664687
-1.624e+00,0.677188
-1.620e+00,0.688125
-1.616e+00,0.695937
-1.612e+00,0.70625
-1.608e+00,0.716875
-1.604e+00,0.728437
-1.600e+00,0.738125
-1.596e+00,0.750625
-1.592e+00,0.76125
-1.588e+00,0.773125
-1.584e+00,0.78375
-1.580e+00,0.794687
-1.576e+00,0.805625
-1.572e+00,0.815
-1.568e+00,0.826562
-1.564e+00,0.838125
-1.560e+00,0.848438
-1.556e+00,0.86
-1.552e+00,0.867188
-1.548e+00,0.879688
-1.544e+00,0.894375
-1.540e+00,0.904375
-1.536e+00,0.915312
-1.532e+00,0.924375
-1.528e+00,0.93625
-1.524e+00,0.946562
-1.520e+00,0.955
-1.516e+00,0.964375
-1.512e+00,0.972187
-1.508e+00,0.98125
-1.504e+00,0.994688
-1.500e+00,1.00781
-1.496e+00,1.01719
-1.492e+00,1.02656
-1.488e+00,1.03719
-1.484e+00,1.04812
-1.480e+00,1.05688
-1.476e+00,1.06844
-1.472e+00,1.08
-1.468e+00,1.08875
-1.464e+00,1.10031
-1.460e+00,1.11062
-1.456e+00,1.12281
-1.452e+00,1.13375
-1.448e+00,1.14406
-1.444e+00,1.15406
-1.440e+00,1.16406
-1.436e+00,1.17344
-1.432e+00,1.18125
-1.428e+00,1.19063
-1.424e+00,1.20125
-1.420e+00,1.20938
-1.416e+00,1.22
-1.412e+00,1.22875
-1.408e+00,1.23781
-1.404e+00,1.24969
-1.400e+00,1.25906
-1.396e+00,1.26844
-1.392e+00,1.27937
-1.388e+00,1.29
-1.384e+00,1.30156
-1.380e+00,1.31188
-1.376e+00,1.32188
-1.372e+00,1.33281
-1.368e+00,1.34781
-1.364e+00,1.35781
-1.360e+00,1.36688
-1.356e+00,1.37938
-1.352e+00,1.39281
-1.348e+00,1.40344
-1.344e+00,1.41281
-1.340e+00,1.42437
-1.336e+00,1.43625
-1.332e+00,1.44469
-1.328e+00,1.455
-1.324e+00,1.46406
-1.320e+00,1.47437
-1.316e+00,1.48469
-1.312e+00,1.49594
-1.308e+00,1.50531
-1.304e+00,1.515
-1.300e+00,1.52406
-1.296e+00,1.535
-1.292e+00,1.54438
-1.288e+00,1.55906
-1.284e+00,1.57094
-1.280e+00,1.58031
-1.276e+00,1.5925
-1.272e+00,1.60125
-1.268e+00,1.61438
-1.264e+00,1.62594
-1.260e+00,1.63625
-1.256e+00,1.64875
-1.252e+00,1.65938
-1.248e+00,1.66875
-1.244e+00,1.67719
-1.240e+00,1.68875
-1.236e+00,1.69969
-1.232e+00,1.70844
-1.228e+00,1.71938
-1.224e+00,1.73031
-1.220e+00,1.74125
-1.216e+00,1.75188
-1.212e+00,1.76281
-1.208e+00,1.77313
-1.204e+00,1.78531
-1.200e+00,1.79469
-1.196e+00,1.80625
-1.192e+00,1.81812
-1.188e+00,1.82719
-1.184e+00,1.8375
-1.180e+00,1.85
-1.176e+00,1.86156
-1.172e+00,1.87
-1.168e+00,1.88031
-1.164e+00,1.89125
-1.160e+00,1.90125
-1.156e+00,1.90969
-1.152e+00,1.92063
-1.148e+00,1.93063
-1.144e+00,1.94031
-1.140e+00,1.95125
-1.136e+00,1.96281
-1.132e+00,1.97531
-1.128e+00,1.98625
-1.124e+00,1.99438
-1.120e+00,2.00563
-1.116e+00,2.01719
-1.112e+00,2.02719
-1.108e+00,2.04062
-1.104e+00,2.05281
-1.100e+00,2.06156
-1.096e+00,2.07313
-1.092e+00,2.08188
-1.088e+00,2.0925
-1.084e+00,2.10656
-1.080e+00,2.11531
-1.076e+00,2.12594
-1.072e+00,2.13281
-1.068e+00,2.14625
-1.064e+00,2.16031
-1.060e+00,2.17188
-1.056e+00,2.18188
-1.052e+00,2.19188
-1.048e+00,2.20438
-1.044e+00,2.21469
-1.040e+00,2.22562
-1.036e+00,2.23563
-1.032e+00,2.24656
-1.028e+00,2.25656
-1.024e+00,2.26688
-1.020e+00,2.27438
-1.016e+00,2.28719
-1.012e+00,2.29781
-1.008e+00,2.30656
-1.004e+00,2.315
-1.000e+00,2.32437
-9.960e-01,2.33656
-9.920e-01,2.34844
-9.880e-01,2.35906
-9.840e-01,2.37156
-9.800e-01,2.38125
-9.760e-01,2.39125
-9.720e-01,2.40125
-9.680e-01,2.41312
-9.640e-01,2.4225
-9.600e-01,2.43312
-9.560e-01,2.4425
-9.520e-01,2.44937
-9.480e-01,2.45812
-9.440e-01,2.46594
-9.400e-01,2.47375
-9.360e-01,2.48313
-9.320e-01,2.49125
-9.280e-01,2.50219
-9.240e-01,2.51187
-9.200e-01,2.52125
-9.160e-01,2.53125
-9.120e-01,2.53969
-9.080e-01,2.54906
-9.040e-01,2.55812
-9.000e-01,2.56688
-8.960e-01,2.57781
-8.920e-01,2.58719
-8.880e-01,2.59969
-8.840e-01,2.61031
-8.800e-01,2.62156
-8.760e-01,2.63313
-8.720e-01,2.64094
-8.680e-01,2.65344
-8.640e-01,2.66344
-8.600e-01,2.67188
-8.560e-01,2.68438
-8.520e-01,2.69281
-8.480e-01,2.70219
-8.440e-01,2.7125
-8.400e-01,2.72094
-8.360e-01,2.73313
-8.320e-01,2.74187
-8.280e-01,2.75438
-8.240e-01,2.765
-8.200e-01,2.77281
-8.160e-01,2.78313
-8.120e-01,2.79469
-8.080e-01,2.80625
-8.040e-01,2.815
-8.000e-01,2.82375
-7.960e-01,2.83813
-7.920e-01,2.8475
-7.880e-01,2.85906
-7.840e-01,2.86781
-7.800e-01,2.87781
-7.760e-01,2.89031
-7.720e-01,2.89906
-7.680e-01,2.91125
-7.640e-01,2.92219
-7.600e-01,2.93406
-7.560e-01,2.94406
-7.520e-01,2.95438
-7.480e-01,2.96656
-7.440e-01,2.97688
-7.400e-01,2.98687
-7.360e-01,3.00062
-7.320e-01,3.01156
-7.280e-01,3.02125
-7.240e-01,3.03094
-7.200e-01,3.03875
-7.160e-01,3.04906
-7.120e-01,3.05844
-7.080e-01,3.06937
-7.040e-01,3.08031
-7.000e-01,3.09094
-6.960e-01,3.10125
-6.920e-01,3.11187
-6.880e-01,3.12219
-6.840e-01,3.13281
-6.800e-01,3.14156
-6.760e-01,3.15344
-6.720e-01,3.16312
-6.680e-01,3.17437
-6.640e-01,3.18531
-6.600e-01,3.19375
-6.560e-01,3.20688
-6.520e-01,3.21875
-6.480e-01,3.23188
-6.440e-01,3.24188
-6.400e-01,3.25031
-6.360e-01,3.26031
-6.320e-01,3.27
-6.280e-01,3.28156
-6.240e-01,3.29156
-6.200e-01,3.30344
-6.160e-01,3.31344
-6.120e-01,3.32437
-6.080e-01,3.33531
-6.040e-01,3.34469
-6.000e-01,3.35375
-5.960e-01,3.36563
-5.920e-01,3.37656
-5.880e-01,3.38875
-5.840e-01,3.3975
-5.800e-01,3.41
-5.760e-01,3.4225
-5.720e-01,3.43312
-5.680e-01,3.44625
-5.640e-01,3.455
-5.600e-01,3.46656
-5.560e-01,3.47969
-5.520e-01,3.49063
-5.480e-01,3.5025
-5.440e-01,3.51031
-5.400e-01,3.52031
-5.360e-01,3.53031
-5.320e-01,3.53812
-5.280e-01,3.54813
-5.240e-01,3.55844
-5.200e-01,3.56906
-5.160e-01,3.57781
-5.120e-01,3.59125
-5.080e-01,3.60188
-5.040e-01,3.61063
-5.000e-01,3.62062
-4.960e-01,3.63375
-4.920e-01,3.64406
-4.880e-01,3.65625
-4.840e-01,3.66469
-4.800e-01,3.67406
-4.760e-01,3.68531
-4.720e-01,3.69687
-4.680e-01,3.71063
-4.640e-01,3.72031
-4.600e-01,3.73188
-4.560e-01,3.74188
-4.520e-01,3.75031
-4.480e-01,3.76125
-4.440e-01,3.76969
-4.400e-01,3.77687
-4.360e-01,3.78938
-4.320e-01,3.79844
-4.280e-01,3.80938
-4.240e-01,3.81875
-4.200e-01,3.82812
-4.160e-01,3.83906
-4.120e-01,3.84594
-4.080e-01,3.85719
-4.040e-01,3.86781
-4.000e-01,3.87813
-3.960e-01,3.89125
-3.920e-01,3.90031
-3.880e-01,3.91063
-3.840e-01,3.92219
-3.800e-01,3.93406
-3.760e-01,3.945
-3.720e-01,3.95438
-3.680e-01,3.96188
-3.640e-01,3.97281
-3.600e-01,3.98063
-3.560e-01,3.99094
-3.520e-01,4.00156
-3.480e-01,4.01406
-3.440e-01,4.0225
-3.400e-01,4.03094
-3.360e-01,4.04281
-3.320e-01,4.05375
-3.280e-01,4.06469
-3.240e-01,4.07531
-3.200e-01,4.08344
-3.160e-01,4.095
-3.120e-01,4.10344
-3.080e-01,4.11656
-3.040e-01,4.12906
-3.000e-01,4.14219
-2.960e-01,4.15188
-2.920e-01,4.16469
-2.880e-01,4.17656
-2.840e-01,4.18687
-2.800e-01,4.19813
-2.760e-01,4.21
-2.720e-01,4.21875
-2.680e-01,4.22938
-2.640e-01,4.24031
-2.600e-01,4.25125
-2.560e-01,4.26125
-2.520e-01,4.27062
-2.480e-01,4.28156
-2.440e-01,4.28937
-2.400e-01,4.29781
-2.360e-01,4.31031
-2.320e-01,4.32062
-2.280e-01,4.33219
-2.240e-01,4.34281
-2.200e-01,4.3525
-2.160e-01,4.36469
-2.120e-01,4.37469
-2.080e-01,4.38406
-2.040e-01,4.395
-2.000e-01,4.40688
-1.960e-01,4.41844
-1.920e-01,4.42875
-1.880e-01,4.43844
-1.840e-01,4.44937
-1.800e-01,4.45969
-1.760e-01,4.47063
-1.720e-01,4.47906
-1.680e-01,4.49
-1.640e-01,4.49937
-1.600e-01,4.50938
-1.560e-01,4.52281
-1.520e-01,4.53188
-1.480e-01,4.54438
-1.440e-01,4.55219
-1.400e-01,4.56219
-1.360e-01,4.57469
-1.320e-01,4.58312
-1.280e-01,4.59438
-1.240e-01,4.605
-1.200e-01,4.61375
-1.160e-01,4.62437
-1.120e-01,4.63438
-1.080e-01,4.64531
-1.040e-01,4.65656
-1.000e-01,4.66625
-9.600e-02,4.67969
-9.200e-02,4.68844
-8.800e-02,4.70063
-8.400e-02,4.71063
-8.000e-02,4.7225
-7.600e-02,4.7325
-7.200e-02,4.74281
-6.800e-02,4.75281
-6.400e-02,4.76125
-6.000e-02,4.77062
-5.600e-02,4.78156
-5.200e-02,4.78937
-4.800e-02,4.8
-4.400e-02,4.81031
-4.000e-02,4.81969
-3.600e-02,4.83125
-3.200e-02,4.83969
-2.800e-02,4.84938
-2.400e-02,4.85938
-2.000e-02,4.87
-1.600e-02,4.88031
-1.200e-02,4.89062
-8.000e-03,4.90188
-4.000e-03,4.91063
2.000e-15,4.9225
4.000e-03,4.93469
8.000e-03,4.9425
1.200e-02,4.955
1.600e-02,4.96375
2.000e-02,4.97344
2.400e-02,4.98469
2.800e-02,4.99156
3.200e-02,5.00219
3.600e-02,5.01094
4.000e-02,5.02094
4.400e-02,5.03125
4.800e-02,5.04031
5.200e-02,5.05156
5.600e-02,5.06
6.000e-02,5.06937
6.400e-02,5.07844
6.800e-02,5.08781
7.200e-02,5.09438
7.600e-02,5.10125
8.000e-02,5.1075
8.400e-02,5.11188
8.800e-02,5.11531
9.200e-02,5.12469
9.600e-02,5.13375
1.000e-01,5.1425
1.040e-01,5.15313
1.080e-01,5.16094
1.120e-01,5.17125
1.160e-01,5.18187
1.200e-01,5.19375
1.240e-01,5.20594
1.280e-01,5.21469
1.320e-01,5.22625
1.360e-01,5.23625
1.400e-01,5.245
1.440e-01,5.25844
1.480e-01,5.26906
1.520e-01,5.27937
1.560e-01,5.28781
1.600e-01,5.29938
1.640e-01,5.31031
1.680e-01,5.31969
1.720e-01,5.33063
1.760e-01,5.34125
1.800e-01,5.35
1.840e-01,5.3625
1.880e-01,5.3725
1.920e-01,5.38344
1.960e-01,5.39438
2.000e-01,5.40437
2.040e-01,5.41531
2.080e-01,5.42531
2.120e-01,5.43719
2.160e-01,5.44625
2.200e-01,5.45656
2.240e-01,5.46531
2.280e-01,5.47656
2.320e-01,5.48937
2.360e-01,5.50063
2.400e-01,5.49563
2.440e-01,5.48438
2.480e-01,5.47187
2.520e-01,5.45906
2.560e-01,5.44625
2.600e-01,5.43531
2.640e-01,5.42563
2.680e-01,5.41531
2.720e-01,5.40219
2.760e-01,5.39281
2.800e-01,5.38281
2.840e-01,5.3725
2.880e-01,5.36031
2.920e-01,5.35
2.960e-01,5.33906
3.000e-01,5.32969
3.040e-01,5.31875
3.080e-01,5.30938
3.120e-01,5.30187
3.160e-01,5.2925
3.200e-01,5.2825
3.240e-01,5.27313
3.280e-01,5.26125
3.320e-01,5.25344
3.360e-01,5.24406
3.400e-01,5.2325
3.440e-01,5.22156
3.480e-01,5.2075
3.520e-01,5.19844
3.560e-01,5.19
3.600e-01,5.18125
3.640e-01,5.16969
3.680e-01,5.15781
3.720e-01,5.15156
3.760e-01,5.14094
3.800e-01,5.13219
3.840e-01,5.12531
3.880e-01,5.11531
3.920e-01,5.11062
3.960e-01,5.10406
4.000e-01,5.0975
4.040e-01,5.09125
4.080e-01,5.08156
4.120e-01,5.0725
4.160e-01,5.05938
4.200e-01,5.04906
4.240e-01,5.03812
4.280e-01,5.02969
4.320e-01,5.02281
4.360e-01,5.0125
4.400e-01,5.00156
4.440e-01,4.9925
4.480e-01,4.98156
4.520e-01,4.96969
4.560e-01,4.96063
4.600e-01,4.94969
4.640e-01,4.93938
4.680e-01,4.92844
4.720e-01,4.91688
4.760e-01,4.9075
4.800e-01,4.89438
4.840e-01,4.88406
4.880e-01,4.87406
4.920e-01,4.86406
4.960e-01,4.85469
5.000e-01,4.84594
5.040e-01,4.83812
5.080e-01,4.82594
5.120e-01,4.8175
5.160e-01,4.80563
5.200e-01,4.79312
5.240e-01,4.78625
5.280e-01,4.77594
5.320e-01,4.76906
5.360e-01,4.76
5.400e-01,4.7475
5.440e-01,4.73875
5.480e-01,4.72719
5.520e-01,4.71687
5.560e-01,4.70437
5.600e-01,4.69375
5.640e-01,4.68375
5.680e-01,4.67188
5.720e-01,4.66125
5.760e-01,4.65
5.800e-01,4.6375
5.840e-01,4.63
5.880e-01,4.61906
5.920e-01,4.60875
5.960e-01,4.59813
6.000e-01,4.58625
6.040e-01,4.57781
6.080e-01,4.56844
6.120e-01,4.55625
6.160e-01,4.54594
6.200e-01,4.5375
6.240e-01,4.52656
6.280e-01,4.51187
6.320e-01,4.50469
6.360e-01,4.49531
6.400e-01,4.48594
6.440e-01,4.47594
6.480e-01,4.46563
6.520e-01,4.45437
6.560e-01,4.4425
6.600e-01,4.43313
6.640e-01,4.42406
6.680e-01,4.41531
6.720e-01,4.40437
6.760e-01,4.39281
6.800e-01,4.38094
6.840e-01,4.37
6.880e-01,4.35469
6.920e-01,4.34625
6.960e-01,4.33531
7.000e-01,4.3275
7.040e-01,4.31594
7.080e-01,4.30469
7.120e-01,4.29469
7.160e-01,4.28375
7.200e-01,4.27469
7.240e-01,4.26438
7.280e-01,4.25281
7.320e-01,4.24281
7.360e-01,4.23156
7.400e-01,4.22094
7.440e-01,4.21219
7.480e-01,4.19969
7.520e-01,4.1875
7.560e-01,4.17875
7.600e-01,4.16656
7.640e-01,4.15656
7.680e-01,4.14406
7.720e-01,4.13438
7.760e-01,4.12219
7.800e-01,4.11062
7.840e-01,4.09813
7.880e-01,4.08625
7.920e-01,4.07781
7.960e-01,4.06625
8.000e-01,4.05687
8.040e-01,4.0475
8.080e-01,4.03563
8.120e-01,4.02719
8.160e-01,4.01781
8.200e-01,4.00781
8.240e-01,3.99844
8.280e-01,3.98687
8.320e-01,3.9775
8.360e-01,3.96719
8.400e-01,3.955
8.440e-01,3.94406
8.480e-01,3.93063
8.520e-01,3.91938
8.560e-01,3.91
8.600e-01,3.89719
8.640e-01,3.88719
8.680e-01,3.875
8.720e-01,3.86531
8.760e-01,3.85406
8.800e-01,3.84531
8.840e-01,3.83688
8.880e-01,3.82531
8.920e-01,3.8175
8.960e-01,3.80656
9.000e-01,3.79625
9.040e-01,3.78688
9.080e-01,3.77687
9.120e-01,3.76531
9.160e-01,3.75531
9.200e-01,3.74656
9.240e-01,3.73781
9.280e-01,3.72781
9.320e-01,3.71687
9.360e-01,3.70844
9.400e-01,3.695
9.440e-01,3.68531
9.480e-01,3.67406
9.520e-01,3.66344
9.560e-01,3.65156
9.600e-01,3.64
9.640e-01,3.62844
9.680e-01,3.61969
9.720e-01,3.6075
9.760e-01,3.59719
9.800e-01,3.58625
9.840e-01,3.57875
9.880e-01,3.5675
9.920e-01,3.55688
9.960e-01,3.54906
1.000e+00,3.53906
1.004e+00,3.52969
1.008e+00,3.51781
1.012e+00,3.50781
1.016e+00,3.49844
1.020e+00,3.48781
1.024e+00,3.47594
1.028e+00,3.46281
1.032e+00,3.45594
1.036e+00,3.44625
1.040e+00,3.43562
1.044e+00,3.42219
1.048e+00,3.41125
1.052e+00,3.39875
1.056e+00,3.38656
1.060e+00,3.37562
1.064e+00,3.36625
1.068e+00,3.35406
1.072e+00,3.34469
1.076e+00,3.33594
1.080e+00,3.32531
1.084e+00,3.31594
1.088e+00,3.30469
1.092e+00,3.29469
1.096e+00,3.28094
1.100e+00,3.27281
1.104e+00,3.26438
1.108e+00,3.25031
1.112e+00,3.24094
1.116e+00,3.22938
1.120e+00,3.21719
1.124e+00,3.20938
1.128e+00,3.19687
1.132e+00,3.18656
1.136e+00,3.17437
1.140e+00,3.16406
1.144e+00,3.15563
1.148e+00,3.14312
1.152e+00,3.13437
1.156e+00,3.12281
1.160e+00,3.11187
1.164e+00,3.09969
1.168e+00,3.08875
1.172e+00,3.08
1.176e+00,3.0675
1.180e+00,3.05781
1.184e+00,3.05
1.188e+00,3.03969
1.192e+00,3.02937
1.196e+00,3.01969
1.200e+00,3.00781
1.204e+00,2.99781
1.208e+00,2.98594
1.212e+00,2.97438
1.216e+00,2.96437
1.220e+00,2.95406
1.224e+00,2.945
1.228e+00,2.93156
1.232e+00,2.92313
1.236e+00,2.91281
1.240e+00,2.90219
1.244e+00,2.8925
1.248e+00,2.87781
1.252e+00,2.86781
1.256e+00,2.85906
1.260e+00,2.84844
1.264e+00,2.83656
1.268e+00,2.82656
1.272e+00,2.81406
1.276e+00,2.80094
1.280e+00,2.79
1.284e+00,2.78219
1.288e+00,2.77156
1.292e+00,2.76219
1.296e+00,2.75219
1.300e+00,2.7425
1.304e+00,2.73313
1.308e+00,2.7225
1.312e+00,2.71375
1.316e+00,2.70219
1.320e+00,2.69188
1.324e+00,2.67969
1.328e+00,2.665
1.332e+00,2.65656
1.336e+00,2.64469
1.340e+00,2.63625
1.344e+00,2.62656
1.348e+00,2.61437
1.352e+00,2.60656
1.356e+00,2.59469
1.360e+00,2.58406
1.364e+00,2.57406
1.368e+00,2.56219
1.372e+00,2.55281
1.376e+00,2.54281
1.380e+00,2.53438
1.384e+00,2.52563
1.388e+00,2.515
1.392e+00,2.50406
1.396e+00,2.49438
1.400e+00,2.48438
1.404e+00,2.4775
1.408e+00,2.47063
1.412e+00,2.46406
1.416e+00,2.45562
1.420e+00,2.44719
1.424e+00,2.43875
1.428e+00,2.42844
1.432e+00,2.4175
1.436e+00,2.40531
1.440e+00,2.395
1.444e+00,2.38563
1.448e+00,2.37188
1.452e+00,2.3625
1.456e+00,2.35219
1.460e+00,2.34
1.464e+00,2.32906
1.468e+00,2.32063
1.472e+00,2.31281
1.476e+00,2.30094
1.480e+00,2.29062
1.484e+00,2.2825
1.488e+00,2.27219
1.492e+00,2.26219
1.496e+00,2.25281
1.500e+00,2.24125
1.504e+00,2.23188
1.508e+00,2.22031
1.512e+00,2.20938
1.516e+00,2.20063
1.520e+00,2.18906
1.524e+00,2.175
1.528e+00,2.16344
1.532e+00,2.15406
1.536e+00,2.1425
1.540e+00,2.13125
1.544e+00,2.12125
1.548e+00,2.10906
1.552e+00,2.09813
1.556e+00,2.08719
1.560e+00,2.07875
1.564e+00,2.06906
1.568e+00,2.05531
1.572e+00,2.04438
1.576e+00,2.03344
1.580e+00,2.02188
1.584e+00,2.01094
1.588e+00,1.99938
1.592e+00,1.99125
1.596e+00,1.97969
1.600e+00,1.96906
1.604e+00,1.96125
1.608e+00,1.95094
1.612e+00,1.93781
1.616e+00,1.9275
1.620e+00,1.91688
1.624e+00,1.90531
1.628e+00,1.89344
1.632e+00,1.88281
1.636e+00,1.87187
1.640e+00,1.86062
1.644e+00,1.8475
1.648e+00,1.83813
1.652e+00,1.8275
1.656e+00,1.81906
1.660e+00,1.80719
1.664e+00,1.8
1.668e+00,1.78625
1.672e+00,1.7775
1.676e+00,1.76594
1.680e+00,1.75562
1.684e+00,1.74438
1.688e+00,1.73469
1.692e+00,1.72531
1.696e+00,1.71469
1.700e+00,1.70531
1.704e+00,1.69531
1.708e+00,1.68375
1.712e+00,1.67281
1.716e+00,1.66187
1.720e+00,1.65031
1.724e+00,1.64
1.728e+00,1.63
1.732e+00,1.62
1.736e+00,1.60344
1.740e+00,1.59469
1.744e+00,1.58563
1.748e+00,1.57469
1.752e+00,1.56594
1.756e+00,1.555
1.760e+00,1.54031
1.764e+00,1.53125
1.768e+00,1.52031
1.772e+00,1.51156
1.776e+00,1.50094
1.780e+00,1.49063
1.784e+00,1.47813
1.788e+00,1.46813
1.792e+00,1.45875
1.796e+00,1.44813
1.800e+00,1.43781
1.804e+00,1.42781
1.808e+00,1.41906
1.812e+00,1.41125
1.816e+00,1.40063
1.820e+00,1.38938
1.824e+00,1.38031
1.828e+00,1.36938
1.832e+00,1.3575
1.836e+00,1.34281
1.840e+00,1.33375
1.844e+00,1.325
1.848e+00,1.31281
1.852e+00,1.30156
1.856e+00,1.29
1.860e+00,1.27937
1.864e+00,1.26844
1.868e+00,1.25875
1.872e+00,1.25031
1.876e+00,1.23875
1.880e+00,1.22844
1.884e+00,1.22063
1.888e+00,1.20781
1.892e+00,1.19906
1.896e+00,1.19125
1.900e+00,1.18031
1.904e+00,1.17188
1.908e+00,1.16094
1.912e+00,1.14719
1.916e+00,1.13844
1.920e+00,1.13
1.924e+00,1.12125
1.928e+00,1.10969
1.932e+00,1.09813
1.936e+00,1.08688
1.940e+00,1.07469
1.944e+00,1.06313
1.948e+00,1.05281
1.952e+00,1.04031
1.956e+00,1.0325
1.960e+00,1.0225
1.964e+00,1.01156
1.968e+00,0.999063
1.972e+00,0.990625
1.976e+00,0.981563
1.980e+00,0.970313
1.984e+00,0.960938
1.988e+00,0.949688
1.992e+00,0.939375
1.996e+00,0.932188

