F86 Grundpraktikum Optik/tek0003ALL.csv

Model,MDO3024
Firmware Version,1.26

Waveform Type,ANALOG,
Point Format,Y,
Horizontal Units,s,
Horizontal Scale,0.2,
Horizontal Delay,0,
Sample Interval,0.002,
Record Length,1000,
Gating,0.1% to 100.0%,
Probe Attenuation,1,1
Vertical Units,V,V
Vertical Offset,0,0
Vertical Scale,2,0.2
Vertical Position,0,-5
,,
,,
,,
Label,,
TIME,CH1,CH2
-1.000e+00,0.982812,1.20437
-9.980e-01,0.992812,1.20575
-9.960e-01,1.00469,1.20756
-9.940e-01,1.01469,1.20872
-9.920e-01,1.025,1.20931
-9.900e-01,1.03656,1.20972
-9.880e-01,1.04594,1.21091
-9.860e-01,1.05375,1.21284
-9.840e-01,1.06531,1.21375
-9.820e-01,1.07781,1.21431
-9.800e-01,1.09156,1.21494
-9.780e-01,1.1025,1.21616
-9.760e-01,1.10969,1.21822
-9.740e-01,1.12187,1.21928
-9.720e-01,1.13375,1.21966
-9.700e-01,1.14469,1.21997
-9.680e-01,1.15688,1.22094
-9.660e-01,1.16719,1.22269
-9.640e-01,1.17719,1.22316
-9.620e-01,1.18719,1.22341
-9.600e-01,1.19688,1.22347
-9.580e-01,1.20531,1.22444
-9.560e-01,1.21313,1.22572
-9.540e-01,1.22156,1.2265
-9.520e-01,1.22938,1.22666
-9.500e-01,1.24031,1.22684
-9.480e-01,1.24969,1.22753
-9.460e-01,1.26031,1.22872
-9.440e-01,1.27,1.22947
-9.420e-01,1.28,1.22931
-9.400e-01,1.2925,1.22909
-9.380e-01,1.30313,1.22988
-9.360e-01,1.31125,1.23097
-9.340e-01,1.32188,1.23128
-9.320e-01,1.33219,1.23109
-9.300e-01,1.34469,1.23087
-9.280e-01,1.35469,1.23128
-9.260e-01,1.36781,1.23228
-9.240e-01,1.37781,1.2325
-9.220e-01,1.38875,1.23203
-9.200e-01,1.40063,1.23159
-9.180e-01,1.41156,1.23219
-9.160e-01,1.42281,1.23313
-9.140e-01,1.43312,1.23303
-9.120e-01,1.44469,1.23272
-9.100e-01,1.45125,1.23206
-9.080e-01,1.45938,1.23228
-9.060e-01,1.47063,1.23306
-9.040e-01,1.48156,1.23313
-9.020e-01,1.49375,1.23256
-9.000e-01,1.50406,1.23206
-8.980e-01,1.515,1.23203
-8.960e-01,1.52406,1.23266
-8.940e-01,1.53563,1.2325
-8.920e-01,1.54656,1.23181
-8.900e-01,1.55656,1.23097
-8.880e-01,1.56906,1.23103
-8.860e-01,1.57875,1.23128
-8.840e-01,1.59031,1.23109
-8.820e-01,1.60125,1.23003
-8.800e-01,1.61062,1.22931
-8.780e-01,1.62187,1.22906
-8.760e-01,1.63156,1.22956
-8.740e-01,1.64469,1.22925
-8.720e-01,1.65625,1.22825
-8.700e-01,1.66563,1.22706
-8.680e-01,1.67437,1.22653
-8.660e-01,1.68344,1.22691
-8.640e-01,1.69375,1.22622
-8.620e-01,1.70594,1.22497
-8.600e-01,1.71562,1.22394
-8.580e-01,1.72844,1.22356
-8.560e-01,1.73969,1.22347
-8.540e-01,1.74906,1.22272
-8.520e-01,1.75906,1.22153
-8.500e-01,1.77125,1.21997
-8.480e-01,1.78406,1.2195
-8.460e-01,1.79406,1.21913
-8.440e-01,1.80188,1.21834
-8.420e-01,1.81344,1.2165
-8.400e-01,1.825,1.21516
-8.380e-01,1.83531,1.21437
-8.360e-01,1.84375,1.21456
-8.340e-01,1.85531,1.21347
-8.320e-01,1.86844,1.21175
-8.300e-01,1.88094,1.20978
-8.280e-01,1.89281,1.20909
-8.260e-01,1.90281,1.20881
-8.240e-01,1.91219,1.20794
-8.220e-01,1.92281,1.20613
-8.200e-01,1.93375,1.20422
-8.180e-01,1.94344,1.20312
-8.160e-01,1.9525,1.20325
-8.140e-01,1.96125,1.2025
-8.120e-01,1.97219,1.201
-8.100e-01,1.98469,1.19928
-8.080e-01,1.99438,1.19844
-8.060e-01,2.00375,1.19828
-8.040e-01,2.01313,1.19687
-8.020e-01,2.025,1.19494
-8.000e-01,2.03812,1.19316
-7.980e-01,2.04688,1.19184
-7.960e-01,2.05594,1.19178
-7.940e-01,2.06594,1.1905
-7.920e-01,2.07719,1.18894
-7.900e-01,2.08781,1.18709
-7.880e-01,2.09719,1.186
-7.860e-01,2.10562,1.18516
-7.840e-01,2.11531,1.18384
-7.820e-01,2.12688,1.18219
-7.800e-01,2.14,1.17984
-7.780e-01,2.15031,1.17938
-7.760e-01,2.16156,1.17878
-7.740e-01,2.1725,1.17809
-7.720e-01,2.18594,1.17606
-7.700e-01,2.1975,1.17378
-7.680e-01,2.2075,1.17028
-7.660e-01,2.21844,1.17028
-7.640e-01,2.23031,1.16875
-7.620e-01,2.24031,1.16656
-7.600e-01,2.25031,1.16578
-7.580e-01,2.26187,1.16725
-7.560e-01,2.27125,1.16772
-7.540e-01,2.27937,1.16584
-7.520e-01,2.29062,1.16394
-7.500e-01,2.30031,1.16169
-7.480e-01,2.31188,1.16097
-7.460e-01,2.32031,1.16034
-7.440e-01,2.33062,1.15916
-7.420e-01,2.34375,1.157
-7.400e-01,2.35469,1.15491
-7.380e-01,2.36469,1.15387
-7.360e-01,2.37625,1.15359
-7.340e-01,2.38563,1.15231
-7.320e-01,2.39812,1.1515
-7.300e-01,2.40813,1.14916
-7.280e-01,2.42094,1.14853
-7.260e-01,2.43156,1.14797
-7.240e-01,2.43875,1.14691
-7.220e-01,2.44937,1.14519
-7.200e-01,2.45719,1.14369
-7.180e-01,2.46437,1.14331
-7.160e-01,2.47125,1.14306
-7.140e-01,2.48062,1.14259
-7.120e-01,2.49,1.14075
-7.100e-01,2.49938,1.13987
-7.080e-01,2.50937,1.13841
-7.060e-01,2.51812,1.13856
-7.040e-01,2.52719,1.13772
-7.020e-01,2.5375,1.13662
-7.000e-01,2.54375,1.13525
-6.980e-01,2.55625,1.13475
-6.960e-01,2.5675,1.13478
-6.940e-01,2.57563,1.134
-6.920e-01,2.585,1.13241
-6.900e-01,2.59563,1.13119
-6.880e-01,2.60594,1.13094
-6.860e-01,2.61656,1.13081
-6.840e-01,2.62281,1.1305
-6.820e-01,2.63531,1.12916
-6.800e-01,2.64875,1.12759
-6.780e-01,2.66094,1.12775
-6.760e-01,2.66875,1.128
-6.740e-01,2.67656,1.12753
-6.720e-01,2.6875,1.12722
-6.700e-01,2.6975,1.12581
-6.680e-01,2.70938,1.12566
-6.660e-01,2.71875,1.12572
-6.640e-01,2.72781,1.12581
-6.620e-01,2.73937,1.1245
-6.600e-01,2.75031,1.12434
-6.580e-01,2.75969,1.12425
-6.560e-01,2.77062,1.12522
-6.540e-01,2.78156,1.12497
-6.520e-01,2.79156,1.12428
-6.500e-01,2.80094,1.12363
-6.480e-01,2.81281,1.12331
-6.460e-01,2.82437,1.12428
-6.440e-01,2.83375,1.12413
-6.420e-01,2.84437,1.12372
-6.400e-01,2.85625,1.12278
-6.380e-01,2.86625,1.12347
-6.360e-01,2.87781,1.12372
-6.340e-01,2.89031,1.12428
-6.320e-01,2.89969,1.12397
-6.300e-01,2.91125,1.12319
-6.280e-01,2.92313,1.12425
-6.260e-01,2.93469,1.12488
-6.240e-01,2.94406,1.12512
-6.220e-01,2.95562,1.12541
-6.200e-01,2.96719,1.12459
-6.180e-01,2.97688,1.12522
-6.160e-01,2.98531,1.1265
-6.140e-01,2.99688,1.12681
-6.120e-01,3.00531,1.12753
-6.100e-01,3.01344,1.127
-6.080e-01,3.025,1.12775
-6.060e-01,3.0375,1.12856
-6.040e-01,3.04688,1.12953
-6.020e-01,3.05688,1.12916
-6.000e-01,3.0675,1.12931
-5.980e-01,3.07719,1.13025
-5.960e-01,3.09094,1.13187
-5.940e-01,3.09969,1.13266
-5.920e-01,3.11187,1.13275
-5.900e-01,3.12375,1.13328
-5.880e-01,3.13313,1.13366
-5.860e-01,3.14406,1.13509
-5.840e-01,3.15313,1.13631
-5.820e-01,3.16406,1.13669
-5.800e-01,3.175,1.13678
-5.780e-01,3.18812,1.1385
-5.760e-01,3.19687,1.13966
-5.740e-01,3.20938,1.14116
-5.720e-01,3.22094,1.14106
-5.700e-01,3.23156,1.14153
-5.680e-01,3.24406,1.14263
-5.660e-01,3.25188,1.14416
-5.640e-01,3.26187,1.14519
-5.620e-01,3.27313,1.14613
-5.600e-01,3.28375,1.14609
-5.580e-01,3.29406,1.14784
-5.560e-01,3.30563,1.14947
-5.540e-01,3.31281,1.15047
-5.520e-01,3.32281,1.151
-5.500e-01,3.335,1.15125
-5.480e-01,3.34594,1.15288
-5.460e-01,3.35469,1.15484
-5.440e-01,3.36375,1.15616
-5.420e-01,3.37656,1.15678
-5.400e-01,3.39031,1.15722
-5.380e-01,3.39969,1.15847
-5.360e-01,3.41063,1.16166
-5.340e-01,3.42313,1.16322
-5.320e-01,3.43562,1.16375
-5.300e-01,3.44625,1.16437
-5.280e-01,3.45719,1.16519
-5.260e-01,3.46594,1.16688
-5.240e-01,3.47656,1.16822
-5.220e-01,3.48844,1.16869
-5.200e-01,3.5,1.16953
-5.180e-01,3.50781,1.17069
-5.160e-01,3.51875,1.17272
-5.140e-01,3.53125,1.17419
-5.120e-01,3.54062,1.17425
-5.100e-01,3.55219,1.17519
-5.080e-01,3.56125,1.17659
-5.060e-01,3.57063,1.17853
-5.040e-01,3.58094,1.18034
-5.020e-01,3.59094,1.18078
-5.000e-01,3.60281,1.18119
-4.980e-01,3.61219,1.18312
-4.960e-01,3.62,1.18478
-4.940e-01,3.63437,1.18647
-4.920e-01,3.64406,1.1875
-4.900e-01,3.65656,1.18772
-4.880e-01,3.66719,1.18928
-4.860e-01,3.67906,1.19122
-4.840e-01,3.68969,1.19259
-4.820e-01,3.70125,1.19347
-4.800e-01,3.71156,1.19369
-4.780e-01,3.72,1.19509
-4.760e-01,3.72781,1.19734
-4.740e-01,3.73969,1.19816
-4.720e-01,3.75062,1.19928
-4.700e-01,3.76219,1.19922
-4.680e-01,3.77125,1.20031
-4.660e-01,3.77937,1.20231
-4.640e-01,3.78719,1.20309
-4.620e-01,3.79719,1.20397
-4.600e-01,3.80719,1.20437
-4.580e-01,3.81813,1.20531
-4.560e-01,3.82688,1.20691
-4.540e-01,3.8375,1.20784
-4.520e-01,3.8475,1.20825
-4.500e-01,3.85781,1.20863
-4.480e-01,3.86844,1.20947
-4.460e-01,3.87656,1.21119
-4.440e-01,3.8875,1.21234
-4.420e-01,3.8975,1.21259
-4.400e-01,3.91063,1.21269
-4.380e-01,3.9225,1.21375
-4.360e-01,3.9325,1.21531
-4.340e-01,3.94188,1.21687
-4.320e-01,3.95562,1.21697
-4.300e-01,3.96594,1.21709
-4.280e-01,3.97438,1.21797
-4.260e-01,3.98625,1.21934
-4.240e-01,3.99594,1.22037
-4.220e-01,4.00531,1.22053
-4.200e-01,4.01781,1.22044
-4.180e-01,4.02937,1.22125
-4.160e-01,4.0375,1.22272
-4.140e-01,4.04531,1.22347
-4.120e-01,4.05594,1.22366
-4.100e-01,4.06844,1.22287
-4.080e-01,4.07937,1.22334
-4.060e-01,4.08938,1.2245
-4.040e-01,4.1025,1.22513
-4.020e-01,4.11062,1.22503
-4.000e-01,4.12281,1.22487
-3.980e-01,4.13531,1.22506
-3.960e-01,4.14625,1.22619
-3.940e-01,4.15656,1.22653
-3.920e-01,4.16812,1.22622
-3.900e-01,4.18063,1.22591
-3.880e-01,4.19125,1.22612
-3.860e-01,4.20219,1.22706
-3.840e-01,4.21219,1.22744
-3.820e-01,4.22406,1.22697
-3.800e-01,4.23406,1.22634
-3.780e-01,4.245,1.22681
-3.760e-01,4.25594,1.22759
-3.740e-01,4.26656,1.22775
-3.720e-01,4.2775,1.22706
-3.700e-01,4.28688,1.22628
-3.680e-01,4.29719,1.22619
-3.660e-01,4.30813,1.22681
-3.640e-01,4.3175,1.22684
-3.620e-01,4.32594,1.22619
-3.600e-01,4.33812,1.22534
-3.580e-01,4.34687,1.22528
-3.560e-01,4.35844,1.22597
-3.540e-01,4.36719,1.22597
-3.520e-01,4.37875,1.22491
-3.500e-01,4.38969,1.22403
-3.480e-01,4.40188,1.22378
-3.460e-01,4.41281,1.22412
-3.440e-01,4.42219,1.22428
-3.420e-01,4.43687,1.22294
-3.400e-01,4.44781,1.22172
-3.380e-01,4.45906,1.22138
-3.360e-01,4.4675,1.22156
-3.340e-01,4.47656,1.22138
-3.320e-01,4.48531,1.22031
-3.300e-01,4.49469,1.21891
-3.280e-01,4.50531,1.21834
-3.260e-01,4.5125,1.21834
-3.240e-01,4.525,1.21781
-3.220e-01,4.53594,1.21619
-3.200e-01,4.54531,1.21463
-3.180e-01,4.55687,1.21409
-3.160e-01,4.56438,1.21406
-3.140e-01,4.57531,1.21344
-3.120e-01,4.58781,1.21197
-3.100e-01,4.59656,1.21041
-3.080e-01,4.60719,1.20962
-3.060e-01,4.6175,1.2095
-3.040e-01,4.6275,1.20909
-3.020e-01,4.63781,1.20794
-3.000e-01,4.64938,1.20644
-2.980e-01,4.66031,1.20569
-2.960e-01,4.67031,1.20538
-2.940e-01,4.68281,1.20469
-2.920e-01,4.69375,1.20344
-2.900e-01,4.70312,1.20181
-2.880e-01,4.71312,1.20109
-2.860e-01,4.72406,1.20078
-2.840e-01,4.73562,1.19984
-2.820e-01,4.74875,1.19844
-2.800e-01,4.75969,1.19672
-2.780e-01,4.76844,1.19578
-2.760e-01,4.77438,1.19572
-2.740e-01,4.78469,1.19494
-2.720e-01,4.79469,1.19341
-2.700e-01,4.80344,1.19162
-2.680e-01,4.815,1.1905
-2.660e-01,4.82437,1.18997
-2.640e-01,4.83344,1.18897
-2.620e-01,4.84312,1.18725
-2.600e-01,4.85406,1.18538
-2.580e-01,4.86625,1.18444
-2.560e-01,4.875,1.18428
-2.540e-01,4.88438,1.18344
-2.520e-01,4.89375,1.1815
-2.500e-01,4.90188,1.17962
-2.480e-01,4.91312,1.17831
-2.460e-01,4.92469,1.17775
-2.440e-01,4.93406,1.177
-2.420e-01,4.94656,1.17566
-2.400e-01,4.95875,1.17331
-2.380e-01,4.96906,1.17272
-2.360e-01,4.97844,1.17184
-2.340e-01,4.9875,1.17122
-2.320e-01,4.99937,1.16975
-2.300e-01,5.00781,1.16781
-2.280e-01,5.01562,1.16694
-2.260e-01,5.02406,1.16681
-2.240e-01,5.03281,1.16619
-2.220e-01,5.04344,1.16469
-2.200e-01,5.05438,1.16237
-2.180e-01,5.06469,1.16144
-2.160e-01,5.07375,1.16134
-2.140e-01,5.08344,1.16072
-2.120e-01,5.09094,1.15894
-2.100e-01,5.09813,1.15684
-2.080e-01,5.10406,1.15553
-2.060e-01,5.10906,1.15497
-2.040e-01,5.11531,1.15453
-2.020e-01,5.12375,1.15281
-2.000e-01,5.13156,1.1515
-1.980e-01,5.14062,1.15041
-1.960e-01,5.15,1.15053
-1.940e-01,5.16031,1.15
-1.920e-01,5.17281,1.14844
-1.900e-01,5.18219,1.14691
-1.880e-01,5.19437,1.14609
-1.860e-01,5.20281,1.14613
-1.840e-01,5.21219,1.14566
-1.820e-01,5.225,1.14431
-1.800e-01,5.23406,1.14291
-1.780e-01,5.24594,1.14222
-1.760e-01,5.2575,1.14184
-1.740e-01,5.26375,1.142
-1.720e-01,5.27219,1.14075
-1.700e-01,5.28406,1.13966
-1.680e-01,5.29563,1.13888
-1.660e-01,5.30187,1.13881
-1.640e-01,5.31344,1.13841
-1.620e-01,5.32375,1.13719
-1.600e-01,5.33531,1.13553
-1.580e-01,5.34438,1.13506
-1.560e-01,5.35531,1.13559
-1.540e-01,5.36406,1.13553
-1.520e-01,5.37406,1.13462
-1.500e-01,5.385,1.13303
-1.480e-01,5.39594,1.13275
-1.460e-01,5.40688,1.13244
-1.440e-01,5.4175,1.13244
-1.420e-01,5.42844,1.13125
-1.400e-01,5.44,1.1305
-1.380e-01,5.45094,1.13031
-1.360e-01,5.46281,1.13078
-1.340e-01,5.47125,1.13072
-1.320e-01,5.48,1.13019
-1.300e-01,5.49219,1.12884
-1.280e-01,5.50375,1.12856
-1.260e-01,5.5025,1.12931
-1.240e-01,5.48906,1.12956
-1.220e-01,5.47906,1.12916
-1.200e-01,5.47031,1.12831
-1.180e-01,5.45875,1.12816
-1.160e-01,5.44562,1.12894
-1.140e-01,5.43562,1.12931
-1.120e-01,5.42844,1.12875
-1.100e-01,5.41625,1.12841
-1.080e-01,5.40813,1.12841
-1.060e-01,5.39844,1.12938
-1.040e-01,5.38563,1.12969
-1.020e-01,5.37469,1.12906
-1.000e-01,5.3625,1.12853
-9.800e-02,5.35313,1.12894
-9.600e-02,5.34063,1.12994
-9.400e-02,5.33125,1.13088
-9.200e-02,5.32188,1.13081
-9.000e-02,5.3125,1.13025
-8.800e-02,5.30187,1.13041
-8.600e-02,5.2925,1.13128
-8.400e-02,5.2825,1.13187
-8.200e-02,5.27438,1.13175
-8.000e-02,5.26313,1.13144
-7.800e-02,5.25375,1.13203
-7.600e-02,5.24125,1.13319
-7.400e-02,5.23125,1.13406
-7.200e-02,5.22031,1.13437
-7.000e-02,5.21312,1.13369
-6.800e-02,5.20375,1.13459
-6.600e-02,5.19219,1.13606
-6.400e-02,5.18063,1.13703
-6.200e-02,5.1725,1.13703
-6.000e-02,5.1625,1.13703
-5.800e-02,5.15188,1.13734
-5.600e-02,5.14219,1.13944
-5.400e-02,5.13094,1.14013
-5.200e-02,5.12281,1.14066
-5.000e-02,5.1175,1.14084
-4.800e-02,5.10969,1.14169
-4.600e-02,5.10438,1.14322
-4.400e-02,5.0975,1.14387
-4.200e-02,5.08969,1.14403
-4.000e-02,5.08406,1.14409
-3.800e-02,5.07563,1.14478
-3.600e-02,5.06594,1.14641
-3.400e-02,5.05531,1.14791
-3.200e-02,5.04594,1.14853
-3.000e-02,5.035,1.14897
-2.800e-02,5.02656,1.14969
-2.600e-02,5.01781,1.15147
-2.400e-02,5.00938,1.15234
-2.200e-02,4.99937,1.15297
-2.000e-02,4.99063,1.15381
-1.800e-02,4.98125,1.15497
-1.600e-02,4.97125,1.15738
-1.400e-02,4.95812,1.15872
-1.200e-02,4.94781,1.15978
-1.000e-02,4.93844,1.15966
-8.000e-03,4.92781,1.16128
-6.000e-03,4.91688,1.16331
-4.000e-03,4.90688,1.165
-2.000e-03,4.89594,1.16578
1.000e-15,4.88594,1.16587
2.000e-03,4.87812,1.16697
4.000e-03,4.86719,1.16859
6.000e-03,4.85625,1.16997
8.000e-03,4.84625,1.17063
1.000e-02,4.83656,1.17106
1.200e-02,4.82688,1.17231
1.400e-02,4.81594,1.17441
1.600e-02,4.80313,1.17544
1.800e-02,4.79156,1.17637
2.000e-02,4.78219,1.17653
2.200e-02,4.77469,1.17778
2.400e-02,4.76281,1.18009
2.600e-02,4.75281,1.18172
2.800e-02,4.74437,1.18241
3.000e-02,4.73344,1.18256
3.200e-02,4.72187,1.18359
3.400e-02,4.71156,1.18516
3.600e-02,4.70063,1.18703
3.800e-02,4.68969,1.18781
4.000e-02,4.67906,1.18903
4.200e-02,4.66938,1.18981
4.400e-02,4.65656,1.192
4.600e-02,4.64625,1.19331
4.800e-02,4.63781,1.19425
5.000e-02,4.6275,1.19403
5.200e-02,4.61437,1.19556
5.400e-02,4.60406,1.19687
5.600e-02,4.59094,1.19891
5.800e-02,4.58094,1.19947
6.000e-02,4.57219,1.19959
6.200e-02,4.5625,1.20084
6.400e-02,4.55219,1.20197
6.600e-02,4.54344,1.2035
6.800e-02,4.53281,1.20412
7.000e-02,4.51875,1.20466
7.200e-02,4.50719,1.20553
7.400e-02,4.49563,1.20709
7.600e-02,4.48438,1.20794
7.800e-02,4.475,1.20863
8.000e-02,4.46344,1.20847
8.200e-02,4.45437,1.20981
8.400e-02,4.44406,1.21128
8.600e-02,4.43313,1.21306
8.800e-02,4.42469,1.21344
9.000e-02,4.41469,1.21362
9.200e-02,4.40375,1.21422
9.400e-02,4.39281,1.2155
9.600e-02,4.3825,1.21697
9.800e-02,4.3725,1.21703
1.000e-01,4.36375,1.2175
1.020e-01,4.35156,1.21828
1.040e-01,4.33969,1.22006
1.060e-01,4.33125,1.22109
1.080e-01,4.31813,1.22138
1.100e-01,4.305,1.221
1.120e-01,4.29625,1.22156
1.140e-01,4.28563,1.22272
1.160e-01,4.27469,1.22381
1.180e-01,4.26438,1.22372
1.200e-01,4.25375,1.22341
1.220e-01,4.2425,1.22394
1.240e-01,4.2325,1.22522
1.260e-01,4.22156,1.22606
1.280e-01,4.21375,1.22581
1.300e-01,4.20125,1.22528
1.320e-01,4.19062,1.22572
1.340e-01,4.17906,1.22653
1.360e-01,4.16781,1.22716
1.380e-01,4.15469,1.22684
1.400e-01,4.14469,1.2265
1.420e-01,4.13594,1.22659
1.440e-01,4.12375,1.22759
1.460e-01,4.11125,1.22809
1.480e-01,4.10125,1.22791
1.500e-01,4.09094,1.22722
1.520e-01,4.08031,1.22728
1.540e-01,4.06906,1.22778
1.560e-01,4.0575,1.22816
1.580e-01,4.04906,1.22769
1.600e-01,4.0375,1.22684
1.620e-01,4.02719,1.22666
1.640e-01,4.01625,1.22747
1.660e-01,4.00625,1.22731
1.680e-01,3.99531,1.22737
1.700e-01,3.98438,1.22637
1.720e-01,3.97531,1.22444
1.740e-01,3.96344,1.22441
1.760e-01,3.95125,1.22519
1.780e-01,3.94,1.22475
1.800e-01,3.93063,1.22397
1.820e-01,3.92,1.22362
1.840e-01,3.90844,1.22428
1.860e-01,3.89875,1.22412
1.880e-01,3.88594,1.22347
1.900e-01,3.87719,1.22219
1.920e-01,3.86563,1.22178
1.940e-01,3.85625,1.22169
1.960e-01,3.84625,1.22184
1.980e-01,3.83594,1.22044
2.000e-01,3.82594,1.21922
2.020e-01,3.81719,1.21803
2.040e-01,3.80781,1.21859
2.060e-01,3.79937,1.21797
2.080e-01,3.78844,1.21681
2.100e-01,3.78,1.21509
2.120e-01,3.76844,1.21425
2.140e-01,3.75813,1.21425
2.160e-01,3.74812,1.21384
2.180e-01,3.74031,1.21234
2.200e-01,3.73,1.21075
2.220e-01,3.72031,1.20966
2.240e-01,3.71156,1.20941
2.260e-01,3.70281,1.20916
2.280e-01,3.69063,1.20772
2.300e-01,3.67969,1.20691
2.320e-01,3.66812,1.20544
2.340e-01,3.65344,1.20566
2.360e-01,3.64375,1.20466
2.380e-01,3.63219,1.20388
2.400e-01,3.62281,1.20141
2.420e-01,3.61344,1.201
2.440e-01,3.60188,1.19994
2.460e-01,3.58969,1.20022
2.480e-01,3.58156,1.198
2.500e-01,3.57375,1.19675
2.520e-01,3.56312,1.19478
2.540e-01,3.55219,1.19519
2.560e-01,3.54031,1.19338
2.580e-01,3.53031,1.19284
2.600e-01,3.52094,1.19013
2.620e-01,3.51031,1.18959
2.640e-01,3.49594,1.18844
2.660e-01,3.48438,1.18844
2.680e-01,3.47344,1.18578
2.700e-01,3.46437,1.18475
2.720e-01,3.45406,1.18291
2.740e-01,3.4425,1.18281
2.760e-01,3.43,1.18175
2.780e-01,3.4175,1.18031
2.800e-01,3.40531,1.178
2.820e-01,3.39656,1.17628
2.840e-01,3.38437,1.17619
2.860e-01,3.375,1.17566
2.880e-01,3.36313,1.17456
2.900e-01,3.35094,1.17272
2.920e-01,3.34219,1.17172
2.940e-01,3.32875,1.17022
2.960e-01,3.31906,1.17047
2.980e-01,3.30969,1.16797
3.000e-01,3.3,1.16688
3.020e-01,3.29188,1.16469
3.040e-01,3.27937,1.16509
3.060e-01,3.27,1.16112
3.080e-01,3.25906,1.15841
3.100e-01,3.24906,1.15966
3.120e-01,3.23875,1.15956
3.140e-01,3.22562,1.15753
3.160e-01,3.21625,1.15778
3.180e-01,3.20594,1.15484
3.200e-01,3.19437,1.15459
3.220e-01,3.18375,1.15231
3.240e-01,3.17344,1.15263
3.260e-01,3.16156,1.15088
3.280e-01,3.15,1.15056
3.300e-01,3.13938,1.14791
3.320e-01,3.12813,1.14769
3.340e-01,3.11844,1.14703
3.360e-01,3.10719,1.14675
3.380e-01,3.09625,1.14519
3.400e-01,3.08469,1.14356
3.420e-01,3.07469,1.14275
3.440e-01,3.06438,1.14231
3.460e-01,3.05313,1.14228
3.480e-01,3.04219,1.14059
3.500e-01,3.03344,1.13944
3.520e-01,3.0225,1.13762
3.540e-01,3.0125,1.13819
3.560e-01,2.99938,1.13672
3.580e-01,2.99,1.13653
3.600e-01,2.97969,1.13397
3.620e-01,2.96969,1.13431
3.640e-01,2.95875,1.13306
3.660e-01,2.94813,1.13431
3.680e-01,2.93844,1.13172
3.700e-01,2.92937,1.13112
3.720e-01,2.9175,1.12938
3.740e-01,2.90531,1.13003
3.760e-01,2.89281,1.12956
3.780e-01,2.88281,1.12925
3.800e-01,2.87406,1.12731
3.820e-01,2.86156,1.12753
3.840e-01,2.8475,1.12722
3.860e-01,2.83688,1.12738
3.880e-01,2.82969,1.12681
3.900e-01,2.82031,1.12522
3.920e-01,2.80938,1.12541
3.940e-01,2.79875,1.12519
3.960e-01,2.78719,1.12613
3.980e-01,2.7775,1.12441
4.000e-01,2.77125,1.12413
4.020e-01,2.75906,1.12278
4.040e-01,2.74812,1.1245
4.060e-01,2.73719,1.12387
4.080e-01,2.72781,1.12459
4.100e-01,2.71781,1.12284
4.120e-01,2.70594,1.12356
4.140e-01,2.69656,1.12331
4.160e-01,2.68531,1.12419
4.180e-01,2.67594,1.12325
4.200e-01,2.6625,1.12325
4.220e-01,2.65031,1.12316
4.240e-01,2.63844,1.12425
4.260e-01,2.625,1.12497
4.280e-01,2.615,1.12403
4.300e-01,2.60656,1.12409
4.320e-01,2.595,1.12316
4.340e-01,2.58469,1.12472
4.360e-01,2.57563,1.12459
4.380e-01,2.56781,1.12581
4.400e-01,2.5575,1.12456
4.420e-01,2.54906,1.12575
4.440e-01,2.53875,1.12556
4.460e-01,2.52875,1.12769
4.480e-01,2.52031,1.12622
4.500e-01,2.51031,1.12738
4.520e-01,2.50156,1.127
4.540e-01,2.49281,1.12916
4.560e-01,2.48313,1.12969
4.580e-01,2.47438,1.13009
4.600e-01,2.46656,1.12956
4.620e-01,2.46094,1.13019
4.640e-01,2.45406,1.13141
4.660e-01,2.44563,1.13297
4.680e-01,2.43531,1.13397
4.700e-01,2.42594,1.13322
4.720e-01,2.41594,1.13516
4.740e-01,2.40531,1.13531
4.760e-01,2.39281,1.13725
4.780e-01,2.38094,1.13641
4.800e-01,2.3725,1.13787
4.820e-01,2.36156,1.13741
4.840e-01,2.35062,1.14084
4.860e-01,2.33969,1.14106
4.880e-01,2.32969,1.14284
